0.0000,0.6266,0.0057,0.2384,0.1730,0.4108,0.4131,0.8207,0.0229,0.1348,0.4811,0.3766,0.4932,0.8020,0.2180,0.2346,0.2157,0.6847,0.9194,0.0027,0.4811,0.5183,0.2319,0.7078,0.5513,0.5073,0.1455,0.2386,0.0658,0.0729,0.7062,0.8798,0.1484,0.0510,0.3042,0.3875,0.2328,0.5501,0.0658,0.5497,0.8298,0.0329,0.3091,0.2543,0.3538,0.0804,0.3236,0.1561,0.3538,0.4447,0.1001,0.4171,0.8072,0.5677,0.6630,0.2729,0.9611,0.4131,0.2569,0.6507,0.2680,0.4803,0.0464,0.2688,0.1224,0.4659,0.7062,0.6507,0.2966,0.4655,0.4495,0.1144,0.1036,0.2159,0.2888,0.3569,0.2555,0.8020,0.1061,0.3349,0.1279,0.3362,0.3538,0.7648,0.7649,0.7970,0.0729,0.1350,0.3127,0.1761,0.1093,0.8573,0.6087,0.0079,0.3236,0.5242,0.0651,0.4447,0.1645,0.3287,0.2180,0.7771,0.7037,0.3236,0.1382,0.1834,0.2693,0.1769,0.5667,0.5667,0.4108,0.1631,0.3810,0.3802,0.0766,0.3310,0.2661,0.0988,0.1631,0.0695,0.3223,0.1395,0.4787,0.1769,0.6507,0.0333,0.2386,0.7542,0.3534,0.5727,0.2661,0.8933,0.2872,0.3252,0.6992,0.8913,0.8663,0.3091,0.5804,0.4485,0.3764,0.4308,0.5969,0.3970,0.8529,0.0352,0.2616,0.6180,0.1761,0.3406
,0.0000,0.6440,0.4303,0.5838,0.6408,0.4489,0.8791,0.6294,0.5142,0.1746,0.3431,0.2454,0.3709,0.5018,0.5199,0.5477,0.0766,0.7350,0.6351,0.1746,0.2603,0.4463,0.8427,0.5104,0.2586,0.4832,0.4995,0.5425,0.6162,0.1520,0.9655,0.5084,0.5670,0.4308,0.3331,0.5529,0.6652,0.5425,0.6163,0.4293,0.6536,0.3671,0.4031,0.5989,0.5395,0.5265,0.4776,0.5989,0.5446,0.5657,0.3475,0.3668,0.2345,0.2181,0.5103,0.8795,0.4489,0.6064,0.0766,0.4776,0.2847,0.6092,0.5671,0.5155,0.2733,0.1520,0.0766,0.3703,0.3612,0.3467,0.5167,0.6249,0.5913,0.4270,0.4267,0.5044,0.3709,0.5562,0.3331,0.4978,0.3671,0.5989,0.8616,0.8895,0.3830,0.6162,0.5814,0.3475,0.4717,0.5277,0.5030,0.0166,0.6029,0.5265,0.2181,0.5915,0.2470,0.4969,0.3346,0.5018,0.5403,0.1270,0.5881,0.4957,0.5398,0.5943,0.4908,0.2228,0.2228,0.6408,0.4913,0.3827,0.2847,0.5539,0.4371,0.4411,0.5775,0.4913,0.5616,0.3660,0.5335,0.2267,0.4908,0.0766,0.6247,0.4995,0.2525,0.5652,0.0671,0.4411,0.6760,0.4171,0.6188,0.1653,0.6921,0.5297,0.3671,0.2470,0.3711,0.3127,0.3052,0.6817,0.3920,0.4996,0.5727,0.4624,0.2524,0.4717,0.3832
,,0.0000,0.2498,0.2024,0.4054,0.4167,0.8205,0.0295,0.1579,0.5003,0.3877,0.5187,0.8115,0.2215,0.2638,0.2458,0.7019,0.9245,0.0027,0.5003,0.5278,0.2413,0.7060,0.5529,0.5334,0.1624,0.2684,0.0769,0.0687,0.7195,0.8790,0.1701,0.0565,0.3322,0.4136,0.2638,0.5474,0.0769,0.5485,0.8405,0.0349,0.3322,0.2696,0.3499,0.0977,0.3234,0.1747,0.3499,0.4448,0.1017,0.4451,0.8172,0.5763,0.6861,0.3047,0.9635,0.4167,0.2504,0.6649,0.2980,0.5070,0.0445,0.2665,0.1439,0.4919,0.7195,0.6649,0.3182,0.4950,0.4785,0.1239,0.0972,0.2479,0.3158,0.3872,0.2865,0.8115,0.1339,0.3560,0.1412,0.3617,0.3499,0.7641,0.7635,0.8061,0.0687,0.1614,0.3309,0.1872,0.1168,0.8655,0.6244,0.0177,0.3234,0.5350,0.0651,0.4582,0.1719,0.3472,0.2215,0.7827,0.7217,0.3195,0.1584,0.2114,0.2649,0.2016,0.5918,0.5918,0.4054,0.1864,0.4098,0.3979,0.0823,0.3366,0.2737,0.1222,0.1864,0.0751,0.3467,0.1641,0.4920,0.2016,0.6649,0.0298,0.2684,0.7703,0.3513,0.5907,0.2737,0.8975,0.2968,0.3191,0.7119,0.8948,0.8744,0.3322,0.6061,0.4780,0.4004,0.4413,0.5957,0.4266,0.8609,0.0531,0.2672,0.6272,0.1872,0.3500
,,,0.0000,0.3124,0.2868,0.2177,0.7532,0.2564,0.2008,0.2397,0.1363,0.2662,0.6863,0.0176,0.2566,0.2963,0.5180,0.8789,0.2436,0.2397,0.3028,0.0015,0.6233,0.3920,0.2887,0.1221,0.2403,0.1688,0.1832,0.5421,0.8482,0.1873,0.1733,0.1600,0.1434,0.3104,0.4303,0.1688,0.4159,0.7394,0.2780,0.0516,0.0049,0.2075,0.2009,0.1472,0.1275,0.2075,0.2769,0.1327,0.1854,0.6954,0.3660,0.5133,0.2728,0.9420,0.2177,0.1248,0.4608,0.2208,0.2573,0.1952,0.1024,0.1926,0.2351,0.5421,0.4608,0.0383,0.2488,0.2238,0.1155,0.1717,0.3431,0.1430,0.1937,0.2561,0.6863,0.2568,0.0788,0.1158,0.0836,0.2075,0.6863,0.6954,0.6782,0.1832,0.2879,0.0577,0.0582,0.1175,0.7745,0.4031,0.2265,0.1472,0.3039,0.1733,0.2041,0.0617,0.0659,0.0176,0.6550,0.5537,0.1771,0.1608,0.2702,0.1184,0.1877,0.3716,0.3716,0.2868,0.1776,0.1438,0.1252,0.1483,0.1174,0.0448,0.2678,0.1776,0.1596,0.0668,0.2371,0.2412,0.1877,0.4608,0.2171,0.2403,0.6320,0.1912,0.3551,0.0448,0.8297,0.0489,0.1948,0.5310,0.8265,0.7917,0.0516,0.3955,0.2324,0.1184,0.1998,0.4729,0.1664,0.7667,0.2231,0.0502,0.4266,0.0582,0.1084
,,,,0.0000,0.5837,0.5279,0.8670,0.1326,0.0946,0.4568,0.4423,0.3943,0.7850,0.3553,0.1055,0.0730,0.6262,0.8897,0.1875,0.4568,0.5717,0.3222,0.7956,0.6532,0.3948,0.1729,0.1146,0.1432,0.2727,0.6813,0.9198,0.1105,0.1765,0.1979,0.2983,0.0762,0.6802,0.1432,0.6709,0.7835,0.1667,0.2664,0.2952,0.5280,0.0904,0.4773,0.1661,0.5280,0.5785,0.2579,0.2983,0.7843,0.6159,0.5382,0.1185,0.9449,0.5279,0.4564,0.6322,0.1436,0.3656,0.2304,0.4447,0.0990,0.3651,0.6813,0.6322,0.2704,0.3172,0.3149,0.2094,0.3162,0.0052,0.1983,0.2182,0.1161,0.7850,0.0405,0.3088,0.1897,0.2609,0.5280,0.8310,0.8364,0.7860,0.2727,0.0049,0.3192,0.2520,0.2206,0.8354,0.5885,0.1331,0.4773,0.5652,0.2259,0.4774,0.2728,0.3347,0.3553,0.7964,0.6262,0.5023,0.1312,0.0691,0.4582,0.1182,0.4489,0.4489,0.5837,0.1218,0.2596,0.3855,0.2038,0.4432,0.3692,0.0264,0.1218,0.1883,0.2632,0.0704,0.5100,0.1182,0.6322,0.2200,0.1146,0.6788,0.5156,0.5382,0.3692,0.8904,0.3747,0.5155,0.6831,0.8912,0.8353,0.2664,0.4508,0.3017,0.3172,0.4919,0.7068,0.2609,0.8356,0.0804,0.3799,0.6514,0.2520,0.4234
,,,,,0.0000,0.0539,0.6356,0.4370,0.5012,0.3944,0.2025,0.5862,0.8179,0.2277,0.5850,0.6087,0.7561,0.9742,0.4076,0.3944,0.2717,0.2694,0.4129,0.2025,0.6204,0.4136,0.5818,0.4112,0.3371,0.7130,0.7415,0.4905,0.3852,0.5455,0.5222,0.6240,0.1674,0.4112,0.1746,0.9144,0.4339,0.4458,0.3266,0.0638,0.4694,0.1038,0.4297,0.0638,0.0497,0.3239,0.5796,0.8400,0.3384,0.8159,0.6189,0.9896,0.0539,0.1579,0.6204,0.5794,0.6027,0.3641,0.1523,0.4863,0.5700,0.7130,0.6204,0.4203,0.6587,0.6302,0.3594,0.3098,0.6208,0.5232,0.6024,0.6003,0.8179,0.5342,0.4072,0.3844,0.4980,0.0638,0.5213,0.5156,0.7946,0.3371,0.5492,0.3527,0.3303,0.3486,0.8976,0.5656,0.4238,0.1038,0.3077,0.3593,0.2352,0.3040,0.3595,0.2277,0.6690,0.8134,0.0904,0.4598,0.5784,0.1480,0.5096,0.6663,0.6663,0.0000,0.4925,0.5773,0.3338,0.3628,0.1471,0.2197,0.5230,0.4925,0.3768,0.4717,0.5347,0.2766,0.5096,0.6204,0.3812,0.5818,0.8735,0.0694,0.5455,0.2197,0.8852,0.2339,0.0887,0.6807,0.8717,0.9264,0.4458,0.6998,0.6354,0.4793,0.1643,0.2397,0.6034,0.8814,0.4591,0.2039,0.4362,0.3303,0.1902
,,,,,,0.0000,0.6279,0.4350,0.4334,0.1987,0.0914,0.4049,0.6944,0.1998,0.5052,0.5344,0.5836,0.9330,0.4144,0.1987,0.1350,0.2098,0.4438,0.1674,0.4417,0.3491,0.4925,0.3746,0.3471,0.5453,0.7683,0.4246,0.3650,0.4371,0.3796,0.5485,0.2025,0.3746,0.1864,0.8179,0.4435,0.3266,0.2397,0.0914,0.4206,0.0955,0.3597,0.0914,0.0382,0.3129,0.4355,0.7200,0.2025,0.6599,0.5271,0.9723,0.0000,0.1898,0.4362,0.4822,0.4343,0.3670,0.1594,0.4221,0.4003,0.5453,0.4362,0.3060,0.5100,0.4793,0.3198,0.3284,0.5599,0.4170,0.4828,0.5096,0.6944,0.4786,0.2791,0.3317,0.3716,0.0914,0.5306,0.5431,0.6690,0.3471,0.5002,0.2376,0.2760,0.3159,0.8077,0.3738,0.4127,0.0955,0.1552,0.3565,0.0766,0.2655,0.2339,0.1998,0.5588,0.6564,0.1151,0.3921,0.5070,0.1693,0.4301,0.4761,0.4761,0.0539,0.4165,0.4458,0.1902,0.3398,0.0904,0.1635,0.4798,0.4165,0.3571,0.3485,0.4697,0.1100,0.4301,0.4362,0.3889,0.4925,0.7441,0.0787,0.3454,0.1635,0.8170,0.1594,0.1296,0.5120,0.8032,0.8461,0.3266,0.5163,0.4932,0.3316,0.0352,0.2514,0.4717,0.7878,0.4270,0.1596,0.2878,0.2760,0.1038
,,,,,,,0.0000,0.8281,0.8354,0.7878,0.6976,0.8719,0.9851,0.7364,0.8681,0.8750,0.9532,1.0000,0.8205,0.7878,0.6348,0.7476,0.3106,0.5030,0.8866,0.8039,0.8638,0.8109,0.7951,0.9169,0.4499,0.8338,0.8061,0.8495,0.8398,0.8798,0.5131,0.8109,0.5030,1.0000,0.8315,0.8104,0.7667,0.6645,0.8297,0.6781,0.8087,0.6645,0.5969,0.7844,0.8627,0.9935,0.6111,0.9745,0.8768,1.0000,0.6279,0.7215,0.8485,0.8622,0.8758,0.8043,0.7081,0.8309,0.8622,0.9169,0.8485,0.8009,0.8956,0.8841,0.7899,0.7853,0.8799,0.8412,0.8696,0.8704,0.9851,0.8510,0.7933,0.7958,0.8305,0.6645,0.1647,0.2149,0.9698,0.7951,0.8558,0.7725,0.7766,0.7878,1.0000,0.8222,0.8221,0.6781,0.6612,0.7998,0.7085,0.7693,0.7709,0.7364,0.6981,0.9804,0.6819,0.8200,0.8650,0.7099,0.8372,0.9126,0.9126,0.6356,0.8310,0.8612,0.7590,0.7966,0.6865,0.7263,0.8495,0.8310,0.8033,0.8203,0.8495,0.7017,0.8372,0.8485,0.8107,0.8638,0.9969,0.6612,0.8308,0.7263,0.9976,0.7234,0.6865,0.8847,0.9914,1.0000,0.8104,0.9264,0.8845,0.8210,0.6736,0.4504,0.8710,0.9994,0.8296,0.7216,0.6391,0.7766,0.7004
,,,,,,,,0.0000,0.1375,0.4875,0.3942,0.4892,0.8044,0.2420,0.2256,0.2045,0.6847,0.9182,0.0258,0.4875,0.5333,0.2514,0.7216,0.5699,0.5011,0.1569,0.2312,0.0813,0.1001,0.7100,0.8853,0.1505,0.0712,0.2992,0.3852,0.2200,0.5709,0.0813,0.5699,0.8287,0.0154,0.3132,0.2688,0.3810,0.0877,0.3496,0.1657,0.3810,0.4678,0.1244,0.4104,0.8089,0.5814,0.6529,0.2612,0.9603,0.4350,0.2854,0.6561,0.2606,0.4739,0.0718,0.2965,0.1269,0.4617,0.7100,0.6561,0.3029,0.4543,0.4405,0.1330,0.1317,0.1722,0.2863,0.3476,0.2458,0.8044,0.0927,0.3412,0.1433,0.3360,0.3810,0.7754,0.7760,0.8002,0.1001,0.0983,0.3231,0.1932,0.1296,0.8579,0.6146,0.0203,0.3496,0.5379,0.0872,0.4582,0.1847,0.3395,0.2420,0.7843,0.7005,0.3512,0.1454,0.1758,0.2978,0.1778,0.5591,0.5591,0.4370,0.1661,0.3742,0.3907,0.0978,0.3533,0.2872,0.0635,0.1661,0.0882,0.3243,0.1376,0.4920,0.1778,0.6561,0.0570,0.2312,0.7506,0.3798,0.5772,0.2872,0.8949,0.3071,0.3533,0.7041,0.8934,0.8660,0.3132,0.5708,0.4375,0.3786,0.4476,0.6151,0.3879,0.8541,0.0355,0.2841,0.6295,0.1932,0.3600
,,,,,,,,,0.0000,0.3668,0.3383,0.3184,0.7450,0.2445,0.0428,0.0439,0.5677,0.8745,0.1460,0.3668,0.4845,0.2101,0.7487,0.5781,0.3240,0.0639,0.0416,0.0308,0.1599,0.6235,0.8999,0.0223,0.0613,0.1201,0.2154,0.0517,0.6119,0.0308,0.6000,0.7505,0.1818,0.1698,0.1858,0.4360,0.0218,0.3775,0.0594,0.4360,0.4915,0.1425,0.2254,0.7453,0.5363,0.4919,0.0564,0.9383,0.4334,0.3582,0.5644,0.0697,0.2941,0.1163,0.3416,0.0014,0.2886,0.6235,0.5644,0.1704,0.2545,0.2464,0.0942,0.2060,0.1094,0.1157,0.1492,0.0484,0.7450,0.0512,0.2104,0.0767,0.1724,0.4360,0.7911,0.7978,0.7453,0.1599,0.0878,0.2154,0.1406,0.1047,0.8060,0.5142,0.1042,0.3775,0.4780,0.1163,0.3806,0.1601,0.2291,0.2445,0.7531,0.5744,0.4075,0.0282,0.0312,0.3577,0.0263,0.3869,0.3869,0.5012,0.0257,0.1858,0.2842,0.0877,0.3387,0.2598,0.0762,0.0257,0.0789,0.1704,0.0195,0.4161,0.0263,0.5644,0.1247,0.0416,0.6361,0.4208,0.4597,0.2598,0.8697,0.2638,0.4236,0.6238,0.8699,0.8077,0.1698,0.3941,0.2403,0.2239,0.3941,0.6422,0.1926,0.8057,0.0666,0.2711,0.5789,0.1406,0.3176
,,,,,,,,,,0.0000,0.1272,0.1076,0.5156,0.3060,0.3863,0.4206,0.2676,0.8032,0.4904,0.0000,0.1794,0.2536,0.7089,0.4108,0.1272,0.3201,0.3637,0.3862,0.4569,0.3195,0.8982,0.3595,0.4102,0.2838,0.1788,0.4285,0.5268,0.3862,0.4878,0.5772,0.5163,0.2008,0.2177,0.3685,0.3909,0.3019,0.3164,0.3685,0.3164,0.3975,0.2039,0.5213,0.2470,0.2717,0.3814,0.9088,0.1987,0.4069,0.2303,0.3398,0.1471,0.4546,0.3595,0.3661,0.1296,0.3195,0.2303,0.1998,0.2339,0.2142,0.3488,0.4612,0.4708,0.2761,0.2897,0.3719,0.5156,0.4193,0.1583,0.3317,0.2098,0.3685,0.7454,0.7703,0.5137,0.4569,0.4490,0.1635,0.2931,0.3593,0.6356,0.1650,0.4562,0.3019,0.1552,0.4322,0.0352,0.3164,0.1523,0.3060,0.5588,0.3117,0.3666,0.3407,0.4073,0.3885,0.3428,0.1028,0.1028,0.3944,0.3408,0.2397,0.0955,0.3913,0.2153,0.2376,0.4423,0.3408,0.4015,0.2041,0.3937,0.0656,0.3428,0.2303,0.4743,0.3637,0.4208,0.3328,0.1001,0.2376,0.7428,0.2142,0.4003,0.3172,0.7465,0.6587,0.2008,0.1321,0.2376,0.1523,0.0766,0.5464,0.2536,0.6279,0.4270,0.2575,0.2878,0.2931,0.1673
,,,,,,,,,,,0.0000,0.2005,0.6235,0.1546,0.3952,0.4302,0.4598,0.8824,0.3817,0.1272,0.1616,0.1374,0.5583,0.2752,0.2340,0.2607,0.3763,0.3077,0.3215,0.4573,0.8235,0.3294,0.3123,0.3031,0.2167,0.4433,0.3431,0.3077,0.3177,0.7228,0.4128,0.1912,0.1409,0.1115,0.3408,0.0834,0.2660,0.1115,0.1613,0.2717,0.2654,0.6411,0.2282,0.5087,0.4075,0.9475,0.0914,0.1942,0.3575,0.3586,0.2385,0.3337,0.1522,0.3305,0.2077,0.4573,0.3575,0.1770,0.3288,0.2993,0.2542,0.3110,0.4700,0.2862,0.3362,0.3915,0.6235,0.3924,0.1400,0.2544,0.2254,0.1115,0.6235,0.6411,0.6078,0.3215,0.4202,0.1148,0.1998,0.2562,0.7389,0.2950,0.3650,0.0834,0.1635,0.3168,0.0694,0.2034,0.1069,0.1546,0.5623,0.5209,0.1263,0.2989,0.4059,0.1721,0.3253,0.3328,0.3328,0.2025,0.3152,0.2887,0.0517,0.2868,0.0403,0.0993,0.4035,0.3152,0.3032,0.2075,0.3749,0.1010,0.3253,0.3575,0.3574,0.3763,0.6167,0.0866,0.2524,0.0993,0.7880,0.0856,0.1513,0.4367,0.7816,0.7717,0.1912,0.3685,0.3195,0.1721,0.0618,0.3797,0.3124,0.7238,0.3614,0.1057,0.2942,0.1998,0.0271
,,,,,,,,,,,,0.0000,0.5824,0.3631,0.3027,0.3371,0.2942,0.7762,0.5058,0.1076,0.3695,0.2887,0.8255,0.5989,0.0021,0.3022,0.2823,0.3792,0.4949,0.4036,0.9434,0.3101,0.4192,0.1998,0.0954,0.3406,0.6961,0.3792,0.6647,0.5623,0.5295,0.1546,0.2254,0.4916,0.3582,0.4082,0.2911,0.4916,0.5217,0.4295,0.0954,0.5732,0.4317,0.1924,0.2878,0.8903,0.4049,0.4973,0.3383,0.2545,0.0271,0.4814,0.4539,0.3239,0.0254,0.4036,0.3383,0.1648,0.0971,0.0900,0.3583,0.5097,0.3976,0.2007,0.1847,0.2844,0.5824,0.3669,0.1262,0.3281,0.1409,0.4916,0.8474,0.8653,0.5940,0.4949,0.3982,0.1561,0.3031,0.3749,0.6645,0.2752,0.4572,0.4082,0.3373,0.4511,0.2025,0.3404,0.1522,0.3631,0.6801,0.2942,0.4786,0.3064,0.3331,0.4858,0.2879,0.0694,0.0694,0.5862,0.2928,0.1374,0.1036,0.4068,0.3040,0.2919,0.3991,0.2928,0.4072,0.1467,0.3347,0.2399,0.2879,0.3383,0.4954,0.2823,0.3829,0.4544,0.1924,0.2919,0.7953,0.2708,0.5134,0.4187,0.8036,0.6601,0.1546,0.0787,0.1057,0.0971,0.2645,0.7101,0.1409,0.6700,0.4070,0.3195,0.4598,0.3031,0.2385
,,,,,,,,,,,,,0.0000,0.7275,0.7507,0.7663,0.3531,0.8233,0.8066,0.5156,0.5604,0.6954,0.9615,0.7566,0.5940,0.7229,0.7380,0.7558,0.7939,0.2172,1.0000,0.7407,0.7677,0.6987,0.6381,0.7694,0.8616,0.7558,0.8300,0.3387,0.8162,0.6543,0.6712,0.7876,0.7570,0.7415,0.7208,0.7876,0.7598,0.7644,0.6508,0.0164,0.5403,0.5946,0.7442,0.9521,0.6944,0.7886,0.3109,0.7257,0.6113,0.7896,0.7646,0.7452,0.6015,0.2172,0.3109,0.6550,0.6610,0.6502,0.7382,0.7986,0.7888,0.6953,0.6975,0.7408,0.0000,0.7683,0.6314,0.7292,0.6571,0.7876,0.9737,0.9864,0.0164,0.7939,0.7836,0.6381,0.7135,0.7438,0.2149,0.3709,0.7893,0.7415,0.5284,0.7813,0.5588,0.7269,0.6274,0.7275,0.4503,0.4301,0.7798,0.7330,0.7610,0.7813,0.7324,0.5772,0.5772,0.8179,0.7321,0.6712,0.5937,0.7585,0.6853,0.6907,0.7789,0.7321,0.7654,0.6550,0.7559,0.5379,0.7324,0.3109,0.8002,0.7380,0.4548,0.7662,0.4268,0.6907,0.4274,0.6731,0.7986,0.2249,0.4966,0.3887,0.6543,0.5978,0.6687,0.6206,0.5978,0.8646,0.6782,0.1647,0.7743,0.7030,0.4780,0.7135,0.6515
,,,,,,,,,,,,,,0.0000,0.3205,0.3574,0.5925,0.9081,0.2192,0.3060,0.3203,0.0102,0.5872,0.3671,0.3895,0.1524,0.3088,0.1791,0.1498,0.5984,0.8297,0.2297,0.1681,0.2390,0.2324,0.3740,0.3827,0.1791,0.3755,0.7904,0.2526,0.1224,0.0383,0.1546,0.2274,0.1117,0.1636,0.1546,0.2412,0.1143,0.2836,0.7394,0.3827,0.6094,0.3474,0.9580,0.1998,0.0673,0.5180,0.2948,0.3573,0.1699,0.0581,0.2319,0.3308,0.5984,0.5180,0.1022,0.3576,0.3295,0.1217,0.1298,0.3935,0.2176,0.2867,0.3277,0.7275,0.2951,0.1434,0.1342,0.1664,0.1546,0.6605,0.6652,0.7161,0.1498,0.3223,0.1077,0.0724,0.1175,0.8104,0.4636,0.2182,0.1117,0.3300,0.1534,0.2397,0.0617,0.1184,0.0000,0.6712,0.6332,0.1252,0.1990,0.3261,0.0659,0.2403,0.4717,0.4717,0.2277,0.2255,0.2416,0.1771,0.1426,0.1084,0.0448,0.2952,0.2255,0.1546,0.1438,0.2831,0.2769,0.2403,0.5180,0.1903,0.3088,0.7043,0.1467,0.4250,0.0448,0.8482,0.0581,0.1351,0.5827,0.8428,0.8305,0.1224,0.4980,0.3376,0.1998,0.2177,0.4347,0.2685,0.8009,0.2353,0.0415,0.4503,0.0724,0.1174
,,,,,,,,,,,,,,,0.0000,0.0368,0.5625,0.8659,0.2488,0.3863,0.5352,0.2714,0.7986,0.6426,0.3009,0.0968,0.0071,0.1149,0.2478,0.6321,0.9226,0.0216,0.1588,0.0968,0.2038,0.0380,0.6815,0.1149,0.6684,0.7410,0.2803,0.1793,0.2296,0.5226,0.0780,0.4597,0.0856,0.5226,0.5679,0.2202,0.1989,0.7479,0.5835,0.4555,0.0072,0.9331,0.5052,0.4496,0.5798,0.0366,0.2699,0.2256,0.4298,0.0502,0.2719,0.6321,0.5798,0.1872,0.2134,0.2128,0.1518,0.2986,0.1036,0.0999,0.1118,0.0065,0.7507,0.0807,0.2280,0.1223,0.1670,0.5226,0.8327,0.8397,0.7539,0.2478,0.1148,0.2469,0.1929,0.1676,0.8057,0.5311,0.1934,0.4597,0.5240,0.1885,0.4246,0.2234,0.2624,0.3205,0.7769,0.5589,0.4950,0.0457,0.0372,0.4485,0.0220,0.3589,0.3589,0.5850,0.0287,0.1576,0.3172,0.1542,0.4100,0.3262,0.1128,0.0287,0.1374,0.1725,0.0452,0.4597,0.0220,0.5798,0.2349,0.0071,0.6184,0.5052,0.4720,0.3262,0.8758,0.3275,0.5131,0.6369,0.8776,0.8025,0.1793,0.3594,0.1989,0.2284,0.4488,0.7057,0.1570,0.8078,0.1338,0.3421,0.6183,0.1929,0.3796
,,,,,,,,,,,,,,,,0.0000,0.5874,0.8736,0.2305,0.4206,0.5632,0.3106,0.8096,0.6638,0.3344,0.1398,0.0457,0.1212,0.2859,0.6546,0.9255,0.0616,0.1671,0.1349,0.2410,0.0015,0.7000,0.1212,0.6877,0.7558,0.2622,0.2192,0.2698,0.5499,0.0515,0.4907,0.1285,0.5499,0.5932,0.2600,0.2344,0.7634,0.6088,0.4810,0.0437,0.9367,0.5344,0.4797,0.6052,0.0749,0.3042,0.2373,0.4618,0.0520,0.3067,0.6546,0.6052,0.2274,0.2470,0.2474,0.1941,0.3346,0.0686,0.1387,0.1479,0.0440,0.7663,0.0505,0.2672,0.1652,0.2060,0.5499,0.8414,0.8478,0.7695,0.2859,0.0850,0.2862,0.2338,0.2095,0.8176,0.5590,0.1726,0.4907,0.5526,0.2276,0.4581,0.2633,0.3018,0.3574,0.7914,0.5829,0.5236,0.0888,0.0032,0.4794,0.0639,0.3894,0.3894,0.6087,0.0712,0.1941,0.3545,0.1960,0.4438,0.3633,0.0833,0.0712,0.1783,0.2120,0.0142,0.4917,0.0639,0.6052,0.2275,0.0457,0.6388,0.5337,0.5024,0.3633,0.8835,0.3651,0.5404,0.6594,0.8854,0.8143,0.2192,0.3889,0.2322,0.2670,0.4812,0.7227,0.1923,0.8196,0.1094,0.3786,0.6418,0.2338,0.4149
,,,,,,,,,,,,,,,,,0.0000,0.6673,0.6931,0.2676,0.4199,0.5353,0.9309,0.6817,0.2998,0.5487,0.5446,0.6044,0.6845,0.1340,0.9970,0.5625,0.6309,0.4811,0.3900,0.5907,0.8076,0.6044,0.7696,0.3270,0.7084,0.4347,0.4866,0.7101,0.5950,0.6373,0.5415,0.7101,0.6825,0.6383,0.3947,0.3270,0.4135,0.2103,0.5505,0.8449,0.5836,0.6983,0.0823,0.5234,0.3288,0.6739,0.6665,0.5706,0.3239,0.1340,0.0823,0.4416,0.3953,0.3862,0.5873,0.6961,0.6296,0.4803,0.4699,0.5470,0.3531,0.6040,0.4086,0.5662,0.4266,0.7101,0.9446,0.9616,0.3879,0.6845,0.6271,0.4309,0.5485,0.5990,0.4504,0.1270,0.6607,0.6373,0.3724,0.6570,0.3691,0.5756,0.4205,0.5925,0.6372,0.0214,0.6940,0.5549,0.5831,0.6915,0.5446,0.2514,0.2514,0.7561,0.5471,0.4296,0.3787,0.6220,0.5506,0.5382,0.6256,0.5471,0.6265,0.4296,0.5819,0.3582,0.5446,0.0823,0.6862,0.5446,0.1340,0.6799,0.1573,0.5382,0.6943,0.5176,0.7211,0.1705,0.7247,0.4504,0.4347,0.2676,0.4086,0.3796,0.4362,0.8040,0.4347,0.4645,0.6279,0.5602,0.3547,0.5485,0.4947
,,,,,,,,,,,,,,,,,,0.0000,0.9219,0.8032,0.9064,0.8858,1.0000,0.9846,0.7721,0.8747,0.8632,0.8922,0.9255,0.7600,1.0000,0.8741,0.9037,0.8428,0.8152,0.8737,0.9983,0.8922,0.9957,0.4274,0.9266,0.8378,0.8663,0.9584,0.8854,0.9347,0.8712,0.9584,0.9653,0.9126,0.8092,0.7500,0.9235,0.6922,0.8631,0.4294,0.9330,0.9437,0.7898,0.8557,0.7844,0.9198,0.9383,0.8766,0.7879,0.7600,0.7898,0.8428,0.8026,0.8029,0.8927,0.9308,0.8896,0.8449,0.8345,0.8631,0.8233,0.8843,0.8346,0.8828,0.8297,0.9584,1.0000,1.0000,0.8838,0.9255,0.8904,0.8466,0.8819,0.8980,0.7089,0.7866,0.9112,0.9347,0.8893,0.9152,0.8582,0.8938,0.8458,0.9081,0.9980,0.6278,0.9505,0.8728,0.8743,0.9451,0.8661,0.7428,0.7428,0.9742,0.8680,0.8219,0.8378,0.9044,0.9086,0.8933,0.8930,0.8680,0.9038,0.8335,0.8778,0.8650,0.8661,0.7898,0.9217,0.8632,0.5570,0.9512,0.7708,0.8933,0.9971,0.8887,0.9573,0.8018,0.9996,0.4499,0.8378,0.7415,0.8070,0.8176,0.8852,0.9998,0.8206,0.8145,0.8967,0.9012,0.9267,0.8819,0.8895
,,,,,,,,,,,,,,,,,,,0.0000,0.4904,0.5228,0.2361,0.7067,0.5517,0.5202,0.1535,0.2533,0.0709,0.0704,0.7127,0.8794,0.1588,0.0535,0.3179,0.4003,0.2481,0.5483,0.0709,0.5487,0.8352,0.0335,0.3203,0.2614,0.3515,0.0887,0.3231,0.1649,0.3515,0.4443,0.1004,0.4309,0.8121,0.5716,0.6744,0.2886,0.9620,0.4144,0.2532,0.6576,0.2827,0.4935,0.0449,0.2671,0.1327,0.4787,0.7127,0.6576,0.3071,0.4801,0.4639,0.1187,0.0999,0.2316,0.3021,0.3718,0.2707,0.8066,0.1197,0.3450,0.1342,0.3486,0.3515,0.7642,0.7641,0.8014,0.0704,0.1480,0.3215,0.1812,0.1126,0.8614,0.6163,0.0123,0.3231,0.5293,0.0645,0.4511,0.1677,0.3375,0.2192,0.7797,0.7126,0.3211,0.1479,0.1972,0.2666,0.1888,0.5791,0.5791,0.4076,0.1744,0.3952,0.3887,0.0789,0.3333,0.2694,0.1103,0.1744,0.0717,0.3342,0.1515,0.4850,0.1888,0.6576,0.0310,0.2533,0.7622,0.3519,0.5815,0.2694,0.8951,0.2915,0.3216,0.7053,0.8929,0.8703,0.3203,0.5931,0.4631,0.3881,0.4356,0.5960,0.4116,0.8569,0.0437,0.2639,0.6223,0.1812,0.3449
,,,,,,,,,,,,,,,,,,,,0.0000,0.1794,0.2536,0.7089,0.4108,0.1272,0.3201,0.3637,0.3862,0.4569,0.3195,0.8982,0.3595,0.4102,0.2838,0.1788,0.4285,0.5268,0.3862,0.4878,0.5772,0.5163,0.2008,0.2177,0.3685,0.3909,0.3019,0.3164,0.3685,0.3164,0.3975,0.2039,0.5213,0.2470,0.2717,0.3814,0.9088,0.1987,0.4069,0.2303,0.3398,0.1471,0.4546,0.3595,0.3661,0.1296,0.3195,0.2303,0.1998,0.2339,0.2142,0.3488,0.4612,0.4708,0.2761,0.2897,0.3719,0.5156,0.4193,0.1583,0.3317,0.2098,0.3685,0.7454,0.7703,0.5137,0.4569,0.4490,0.1635,0.2931,0.3593,0.6356,0.1650,0.4562,0.3019,0.1552,0.4322,0.0352,0.3164,0.1523,0.3060,0.5588,0.3117,0.3666,0.3407,0.4073,0.3885,0.3428,0.1028,0.1028,0.3944,0.3408,0.2397,0.0955,0.3913,0.2153,0.2376,0.4423,0.3408,0.4015,0.2041,0.3937,0.0656,0.3428,0.2303,0.4743,0.3637,0.4208,0.3328,0.1001,0.2376,0.7428,0.2142,0.4003,0.3172,0.7465,0.6587,0.2008,0.1321,0.2376,0.1523,0.0766,0.5464,0.2536,0.6279,0.4270,0.2575,0.2878,0.2931,0.1673
,,,,,,,,,,,,,,,,,,,,,0.0000,0.3039,0.5000,0.1458,0.4031,0.4165,0.5170,0.4591,0.4699,0.3702,0.8111,0.4787,0.4629,0.4567,0.3810,0.5742,0.2603,0.4591,0.2181,0.7376,0.5483,0.3551,0.3072,0.2784,0.4877,0.2511,0.4213,0.2784,0.1603,0.4263,0.4270,0.5946,0.0637,0.5307,0.5440,0.9620,0.1350,0.3598,0.2451,0.5025,0.4059,0.4809,0.3156,0.4780,0.3756,0.3702,0.2451,0.3415,0.4857,0.4577,0.4108,0.4610,0.5943,0.4416,0.4858,0.5301,0.5604,0.5310,0.3077,0.4110,0.3872,0.2784,0.5604,0.5946,0.5284,0.4699,0.5538,0.2831,0.3634,0.4127,0.7182,0.1796,0.5084,0.2511,0.0036,0.4682,0.1072,0.3666,0.2708,0.3203,0.4299,0.5172,0.2944,0.4501,0.5428,0.3351,0.4728,0.4245,0.4245,0.2717,0.4641,0.4458,0.2185,0.4399,0.2068,0.2680,0.5405,0.4641,0.4562,0.3704,0.5166,0.0770,0.4728,0.2451,0.5024,0.5170,0.6371,0.2524,0.1497,0.2680,0.7348,0.2494,0.3197,0.3321,0.7197,0.7762,0.3551,0.4649,0.4772,0.3351,0.0977,0.2842,0.4675,0.6893,0.5051,0.2743,0.1296,0.3634,0.1931
,,,,,,,,,,,,,,,,,,,,,,0.0000,0.6124,0.3827,0.3124,0.1275,0.2561,0.1695,0.1730,0.5544,0.8428,0.1963,0.1701,0.1781,0.1637,0.3255,0.4159,0.1695,0.4031,0.7517,0.2703,0.0668,0.0102,0.1912,0.2060,0.1351,0.1343,0.1912,0.2648,0.1259,0.2083,0.7054,0.3671,0.5369,0.2904,0.9467,0.2098,0.1077,0.4729,0.2379,0.2808,0.1870,0.0882,0.2007,0.2573,0.5544,0.4729,0.0516,0.2749,0.2488,0.1147,0.1593,0.3548,0.1600,0.2156,0.2729,0.6954,0.2650,0.0924,0.1181,0.1022,0.1912,0.6782,0.6863,0.6863,0.1730,0.2954,0.0673,0.0591,0.1153,0.7829,0.4159,0.2229,0.1351,0.3072,0.1665,0.2098,0.0590,0.0759,0.0102,0.6571,0.5728,0.1612,0.1685,0.2831,0.1024,0.1991,0.3955,0.3955,0.2694,0.1877,0.1664,0.1351,0.1449,0.1117,0.0415,0.2735,0.1877,0.1565,0.0836,0.2472,0.2469,0.1991,0.4729,0.2088,0.2561,0.6496,0.1770,0.3704,0.0415,0.8335,0.0478,0.1771,0.5421,0.8297,0.8009,0.0668,0.4203,0.2576,0.1363,0.2008,0.4608,0.1906,0.7745,0.2246,0.0448,0.4296,0.0591,0.1073
,,,,,,,,,,,,,,,,,,,,,,,0.0000,0.2873,0.8463,0.6992,0.7959,0.7015,0.6653,0.8810,0.4814,0.7466,0.6894,0.7780,0.7711,0.8177,0.2487,0.7015,0.2531,0.9987,0.7235,0.7219,0.6480,0.4646,0.7344,0.4958,0.7084,0.4646,0.3870,0.6532,0.8058,0.9767,0.4849,0.9629,0.8164,1.0000,0.4438,0.5470,0.8047,0.7955,0.8293,0.6812,0.5341,0.7405,0.8095,0.8810,0.8047,0.7063,0.8553,0.8388,0.6698,0.6489,0.8154,0.7651,0.8119,0.8062,0.9615,0.7697,0.6993,0.6830,0.7534,0.4646,0.1262,0.1150,0.9397,0.6653,0.7767,0.6645,0.6529,0.6645,0.9966,0.7695,0.7132,0.4958,0.5405,0.6775,0.5888,0.6381,0.6667,0.5872,0.6914,0.9647,0.4904,0.7258,0.7935,0.5330,0.7546,0.8846,0.8846,0.4129,0.7446,0.8001,0.6542,0.6747,0.5233,0.5795,0.7656,0.7446,0.6856,0.7376,0.7698,0.5898,0.7546,0.8047,0.6915,0.7959,0.9882,0.4661,0.7793,0.5795,0.9807,0.5827,0.4918,0.8429,0.9649,0.9997,0.7219,0.9030,0.8384,0.7458,0.5321,0.1908,0.8151,0.9922,0.7302,0.5697,0.5403,0.6529,0.5530
,,,,,,,,,,,,,,,,,,,,,,,,0.0000,0.6322,0.5069,0.6327,0.5247,0.4929,0.6056,0.6921,0.5731,0.5142,0.5937,0.5566,0.6755,0.0369,0.5247,0.0166,0.9137,0.5758,0.5018,0.4159,0.2454,0.5657,0.2600,0.5169,0.2454,0.1339,0.4666,0.6066,0.7949,0.0989,0.7984,0.6621,0.9978,0.1674,0.3472,0.4698,0.6268,0.6188,0.5122,0.3182,0.5682,0.5881,0.6056,0.4698,0.4822,0.6748,0.6483,0.4774,0.4749,0.6800,0.5760,0.6358,0.6473,0.7566,0.6143,0.4624,0.4899,0.5434,0.2454,0.3830,0.4027,0.7155,0.4929,0.6296,0.4211,0.4429,0.4729,0.8791,0.3985,0.5529,0.2600,0.1796,0.5048,0.2745,0.4307,0.4171,0.3671,0.4992,0.7696,0.2733,0.5439,0.6409,0.3251,0.5782,0.6766,0.6766,0.2025,0.5660,0.6095,0.3832,0.4923,0.2650,0.3392,0.6139,0.5660,0.5081,0.5222,0.6090,0.2588,0.5782,0.4698,0.5304,0.6327,0.8582,0.2359,0.4515,0.3392,0.8389,0.3346,0.2847,0.5529,0.8131,0.9243,0.5018,0.7109,0.6566,0.5137,0.2228,0.0766,0.6320,0.8521,0.5681,0.3331,0.2052,0.4429,0.2847
,,,,,,,,,,,,,,,,,,,,,,,,,0.0000,0.3146,0.2816,0.3920,0.5144,0.4187,0.9512,0.3154,0.4344,0.2007,0.0993,0.3369,0.7263,0.3920,0.6961,0.5609,0.5429,0.1648,0.2451,0.5283,0.3659,0.4435,0.3022,0.5283,0.5582,0.4494,0.0941,0.5824,0.4642,0.1790,0.2843,0.8870,0.4417,0.5274,0.3575,0.2537,0.0254,0.4989,0.4858,0.3305,0.0271,0.4187,0.3575,0.1770,0.0900,0.0856,0.3751,0.5310,0.3955,0.2035,0.1817,0.2822,0.5940,0.3702,0.1400,0.3428,0.1467,0.5283,0.8653,0.8820,0.6078,0.5144,0.4010,0.1744,0.3213,0.3925,0.6700,0.2950,0.4697,0.4435,0.3695,0.4675,0.2325,0.3607,0.1721,0.3895,0.7012,0.2923,0.5134,0.3152,0.3326,0.5176,0.2928,0.0638,0.0638,0.6204,0.2990,0.1363,0.1263,0.4236,0.3381,0.3195,0.4035,0.2990,0.4219,0.1546,0.3374,0.2710,0.2928,0.3575,0.5112,0.2816,0.3776,0.4916,0.2091,0.3195,0.8036,0.2993,0.5477,0.4367,0.8130,0.6612,0.1648,0.0694,0.0993,0.1069,0.2980,0.7393,0.1374,0.6775,0.4162,0.3481,0.4898,0.3213,0.2707
,,,,,,,,,,,,,,,,,,,,,,,,,,0.0000,0.0836,0.0583,0.1047,0.5931,0.8785,0.0462,0.0741,0.1042,0.1925,0.1520,0.5400,0.0583,0.5280,0.7440,0.1898,0.1275,0.1159,0.3429,0.0732,0.2847,0.0015,0.3429,0.4071,0.0480,0.2158,0.7257,0.4732,0.5025,0.1096,0.9389,0.3491,0.2604,0.5262,0.0599,0.2847,0.1100,0.2436,0.0594,0.2723,0.5931,0.5262,0.1221,0.2589,0.2436,0.0127,0.1038,0.1982,0.0935,0.1463,0.0958,0.7229,0.1199,0.1622,0.0036,0.1427,0.3429,0.7503,0.7572,0.7208,0.1047,0.1552,0.1560,0.0639,0.0195,0.7927,0.4732,0.1250,0.2847,0.4132,0.0790,0.3141,0.0759,0.1677,0.1524,0.7193,0.5662,0.3130,0.0310,0.1188,0.2589,0.0456,0.3845,0.3845,0.4136,0.0395,0.1760,0.2246,0.0518,0.2515,0.1744,0.1372,0.0395,0.0549,0.1343,0.0938,0.3506,0.0456,0.5262,0.1284,0.0836,0.6335,0.3282,0.4213,0.1744,0.8557,0.1797,0.3289,0.5897,0.8555,0.7996,0.1275,0.3986,0.2444,0.1868,0.3201,0.5764,0.1898,0.7900,0.1065,0.1827,0.5234,0.0639,0.2361
,,,,,,,,,,,,,,,,,,,,,,,,,,,0.0000,0.1126,0.2433,0.6148,0.9220,0.0222,0.1573,0.0854,0.1860,0.0482,0.6773,0.1126,0.6622,0.7321,0.2857,0.1609,0.2116,0.5171,0.0794,0.4504,0.0721,0.5171,0.5589,0.2118,0.1832,0.7358,0.5660,0.4407,0.0034,0.9316,0.4925,0.4457,0.5603,0.0283,0.2517,0.2265,0.4222,0.0483,0.2525,0.6148,0.5603,0.1685,0.1986,0.1963,0.1400,0.2949,0.1153,0.0874,0.1004,0.0015,0.7380,0.0861,0.2083,0.1097,0.1496,0.5171,0.8289,0.8373,0.7408,0.2433,0.1221,0.2272,0.1795,0.1567,0.7969,0.5104,0.1964,0.4504,0.5046,0.1842,0.4038,0.2113,0.2411,0.3088,0.7650,0.5427,0.4894,0.0341,0.0439,0.4427,0.0117,0.3408,0.3408,0.5818,0.0179,0.1431,0.2956,0.1451,0.3955,0.3114,0.1202,0.0179,0.1343,0.1545,0.0490,0.4386,0.0117,0.5603,0.2384,0.0000,0.6050,0.4976,0.4501,0.3114,0.8680,0.3104,0.5094,0.6194,0.8702,0.7959,0.1609,0.3428,0.1860,0.2073,0.4301,0.6999,0.1439,0.7979,0.1367,0.3288,0.6007,0.1795,0.3623
,,,,,,,,,,,,,,,,,,,,,,,,,,,,0.0000,0.0671,0.6403,0.8787,0.0496,0.0067,0.1827,0.2702,0.1356,0.5425,0.0000,0.5357,0.7785,0.1076,0.1998,0.1715,0.3465,0.0267,0.3000,0.0628,0.3465,0.4214,0.0700,0.2959,0.7594,0.5131,0.5665,0.1423,0.9477,0.3746,0.2594,0.5784,0.1413,0.3630,0.0323,0.2536,0.0231,0.3501,0.6403,0.5784,0.1917,0.3408,0.3256,0.0539,0.1058,0.1752,0.1704,0.2290,0.1270,0.7558,0.0839,0.2314,0.0535,0.2196,0.3465,0.7558,0.7594,0.7528,0.0671,0.1180,0.2190,0.1092,0.0560,0.8193,0.5298,0.0540,0.3000,0.4596,0.0444,0.3677,0.1119,0.2327,0.1791,0.7450,0.6218,0.3169,0.0406,0.0952,0.2630,0.0647,0.4577,0.4577,0.4112,0.0553,0.2571,0.2877,0.0315,0.2834,0.2114,0.0932,0.0553,0.0282,0.2092,0.0623,0.4038,0.0647,0.5784,0.0430,0.1126,0.6820,0.3375,0.4839,0.2114,0.8711,0.2230,0.3268,0.6357,0.8702,0.8266,0.1998,0.4713,0.3250,0.2630,0.3655,0.5837,0.2715,0.8161,0.0504,0.2145,0.5639,0.1092,0.2784
,,,,,,,,,,,,,,,,,,,,,,,,,,,,,0.0000,0.6941,0.8624,0.1383,0.0427,0.3013,0.3815,0.3049,0.4879,0.0671,0.4885,0.8364,0.1032,0.2865,0.2072,0.2776,0.1249,0.2503,0.1195,0.2776,0.3755,0.0320,0.4218,0.8023,0.5226,0.6853,0.2868,0.9648,0.3471,0.1803,0.6323,0.2694,0.4866,0.0255,0.1919,0.1438,0.4668,0.6941,0.6323,0.2689,0.4819,0.4606,0.0581,0.0285,0.3192,0.2811,0.3651,0.2649,0.7939,0.2044,0.3076,0.0791,0.3240,0.2776,0.7309,0.7307,0.7857,0.0000,0.2309,0.2754,0.1233,0.0495,0.8563,0.5888,0.0849,0.2503,0.4796,0.0081,0.4005,0.1050,0.2905,0.1498,0.7520,0.7122,0.2476,0.1114,0.2491,0.1912,0.1632,0.5795,0.5795,0.3371,0.1451,0.3849,0.3434,0.0192,0.2651,0.2039,0.1938,0.1451,0.0231,0.3050,0.1975,0.4355,0.1632,0.6323,0.0390,0.2433,0.7661,0.2783,0.5561,0.2039,0.8854,0.2264,0.2484,0.6830,0.8816,0.8697,0.2865,0.5981,0.4635,0.3597,0.3781,0.5406,0.4062,0.8495,0.1209,0.1962,0.5797,0.1233,0.2816
,,,,,,,,,,,,,,,,,,,,,,,,,,,,,,0.0000,0.9919,0.6185,0.6577,0.5591,0.4765,0.6593,0.7486,0.6403,0.7041,0.3907,0.7274,0.4991,0.5214,0.6750,0.6415,0.6141,0.5897,0.6750,0.6289,0.6532,0.4932,0.2249,0.3417,0.4116,0.6248,0.9030,0.5453,0.6826,0.0905,0.5975,0.4410,0.6893,0.6485,0.6238,0.4281,0.0000,0.0905,0.4999,0.5086,0.4941,0.6162,0.7002,0.6879,0.5546,0.5583,0.6194,0.2172,0.6575,0.4679,0.6028,0.5027,0.6750,0.9025,0.9309,0.2249,0.6941,0.6784,0.4765,0.5797,0.6242,0.3937,0.1520,0.6883,0.6141,0.3321,0.6771,0.3721,0.5985,0.4628,0.5984,0.4548,0.2152,0.6663,0.6062,0.6469,0.6713,0.6050,0.3949,0.3949,0.7130,0.6046,0.5214,0.4178,0.6457,0.5387,0.5472,0.6732,0.6046,0.6543,0.4999,0.6400,0.3473,0.6050,0.0905,0.7036,0.6148,0.2308,0.6459,0.2149,0.5472,0.5737,0.5249,0.6922,0.0074,0.6002,0.4716,0.4991,0.4208,0.5171,0.4533,0.4208,0.7374,0.5310,0.3725,0.6665,0.5642,0.2668,0.5797,0.4941
,,,,,,,,,,,,,,,,,,,,,,,,,,,,,,,0.0000,0.8999,0.8723,0.9154,0.9158,0.9284,0.6570,0.8787,0.6642,1.0000,0.8870,0.8933,0.8602,0.7696,0.8925,0.7879,0.8828,0.7696,0.7358,0.8568,0.9299,1.0000,0.8131,0.9983,0.9297,1.0000,0.7683,0.8069,0.9617,0.9220,0.9428,0.8688,0.8039,0.8960,0.9347,0.9919,0.9617,0.8858,0.9516,0.9451,0.8651,0.8547,0.9283,0.9105,0.9299,0.9259,1.0000,0.9089,0.8851,0.8712,0.9081,0.7696,0.4274,0.3814,1.0000,0.8624,0.9106,0.8684,0.8595,0.8625,1.0000,0.9394,0.8820,0.7879,0.8317,0.8675,0.8447,0.8526,0.8712,0.8297,0.9626,0.9998,0.7822,0.8903,0.9199,0.8029,0.9046,0.9684,0.9684,0.7415,0.8998,0.9261,0.8685,0.8659,0.8034,0.8293,0.9062,0.8998,0.8721,0.9009,0.9099,0.8483,0.9046,0.9617,0.8720,0.9220,1.0000,0.7721,0.9363,0.8293,1.0000,0.8303,0.7814,0.9835,1.0000,1.0000,0.8933,0.9742,0.9437,0.9065,0.8170,0.6278,0.9318,1.0000,0.8907,0.8242,0.8523,0.8595,0.8189
,,,,,,,,,,,,,,,,,,,,,,,,,,,,,,,,0.0000,0.0768,0.1043,0.2039,0.0691,0.6059,0.0496,0.5945,0.7479,0.1935,0.1571,0.1726,0.4240,0.0409,0.3655,0.0417,0.4240,0.4834,0.1229,0.2137,0.7410,0.5312,0.4861,0.0368,0.9381,0.4246,0.3425,0.5590,0.0517,0.2846,0.1251,0.3276,0.0225,0.2793,0.6185,0.5590,0.1578,0.2433,0.2353,0.0758,0.1854,0.1244,0.1001,0.1343,0.0289,0.7407,0.0689,0.1990,0.0586,0.1597,0.4240,0.7895,0.7965,0.7410,0.1383,0.1041,0.2039,0.1242,0.0861,0.8026,0.5084,0.1194,0.3655,0.4721,0.0941,0.3731,0.1433,0.2184,0.2297,0.7507,0.5695,0.3946,0.0092,0.0497,0.3430,0.0073,0.3791,0.3791,0.4905,0.0066,0.1726,0.2750,0.0676,0.3279,0.2470,0.0919,0.0066,0.0574,0.1578,0.0385,0.4093,0.0073,0.5590,0.1383,0.0222,0.6321,0.4094,0.4535,0.2470,0.8670,0.2523,0.4101,0.6188,0.8684,0.8058,0.1571,0.3864,0.2281,0.2135,0.3864,0.6380,0.1794,0.8016,0.0840,0.2579,0.5743,0.1242,0.3074
,,,,,,,,,,,,,,,,,,,,,,,,,,,,,,,,,0.0000,0.2242,0.3089,0.1836,0.5240,0.0067,0.5198,0.7973,0.0892,0.2298,0.1836,0.3221,0.0456,0.2822,0.0822,0.3221,0.4056,0.0557,0.3397,0.7727,0.5166,0.6076,0.1921,0.9543,0.3650,0.2308,0.5961,0.1864,0.4059,0.0123,0.2314,0.0503,0.3904,0.6577,0.5961,0.2183,0.3900,0.3726,0.0545,0.0776,0.2145,0.2091,0.2768,0.1743,0.7677,0.1123,0.2577,0.0617,0.2559,0.3221,0.7478,0.7498,0.7631,0.0427,0.1442,0.2382,0.1135,0.0529,0.8305,0.5494,0.0478,0.2822,0.4664,0.0290,0.3788,0.1087,0.2524,0.1681,0.7478,0.6521,0.2921,0.0634,0.1365,0.2372,0.0975,0.4998,0.4998,0.3852,0.0850,0.3019,0.3067,0.0248,0.2766,0.2083,0.1143,0.0850,0.0226,0.2424,0.0958,0.4145,0.0975,0.5961,0.0236,0.1573,0.7102,0.3165,0.5082,0.2083,0.8763,0.2237,0.2989,0.6510,0.8741,0.8398,0.2298,0.5153,0.3735,0.2964,0.3696,0.5694,0.3187,0.8263,0.0593,0.2076,0.5694,0.1135,0.2791
,,,,,,,,,,,,,,,,,,,,,,,,,,,,,,,,,,0.0000,0.1003,0.1384,0.6487,0.1827,0.6302,0.6912,0.3486,0.0725,0.1276,0.4724,0.1570,0.3955,0.0935,0.4724,0.5141,0.2306,0.1003,0.6953,0.5112,0.3766,0.0907,0.9224,0.4371,0.3960,0.4983,0.0579,0.1702,0.2898,0.3665,0.1256,0.1695,0.5591,0.4983,0.0803,0.1185,0.1139,0.1592,0.3128,0.2013,0.0014,0.0172,0.0873,0.6987,0.1676,0.1215,0.1294,0.0619,0.4724,0.8123,0.8229,0.7029,0.3013,0.2022,0.1421,0.0977,0.1758,0.7643,0.4429,0.2648,0.3955,0.4416,0.2515,0.3303,0.1338,0.1544,0.2390,0.7346,0.4811,0.4421,0.1092,0.1308,0.3910,0.0909,0.2657,0.2657,0.5455,0.0955,0.0592,0.2125,0.2102,0.3298,0.2384,0.2004,0.0955,0.2049,0.0663,0.1326,0.3674,0.0909,0.4983,0.3033,0.0854,0.5513,0.4491,0.3766,0.2384,0.8498,0.2343,0.4658,0.5647,0.8526,0.7625,0.0725,0.2700,0.1075,0.1185,0.3618,0.6717,0.0619,0.7665,0.2105,0.2587,0.5485,0.0977,0.2904
,,,,,,,,,,,,,,,,,,,,,,,,,,,,,,,,,,,0.0000,0.2457,0.6317,0.2702,0.6066,0.6340,0.4286,0.0502,0.1077,0.4371,0.2520,0.3437,0.1827,0.4371,0.4741,0.3128,0.0052,0.6340,0.4411,0.2943,0.1943,0.9091,0.3796,0.3560,0.4086,0.1584,0.0709,0.3709,0.3167,0.2198,0.0670,0.4765,0.4086,0.0577,0.0261,0.0172,0.2440,0.3929,0.3043,0.0993,0.0925,0.1894,0.6381,0.2663,0.0195,0.2157,0.0415,0.4371,0.8036,0.8183,0.6438,0.3815,0.2997,0.0430,0.1841,0.2598,0.7159,0.3475,0.3511,0.3437,0.3601,0.3374,0.2376,0.2190,0.0508,0.2324,0.6907,0.3947,0.4033,0.2006,0.2348,0.3474,0.1860,0.1699,0.1699,0.5222,0.1895,0.0448,0.1106,0.2940,0.2595,0.1601,0.2982,0.1895,0.2939,0.0448,0.2332,0.2754,0.1860,0.4086,0.3864,0.1860,0.4765,0.4070,0.2743,0.1601,0.8194,0.1495,0.4335,0.4839,0.8242,0.7159,0.0502,0.1788,0.0195,0.0109,0.2791,0.6523,0.0502,0.7181,0.3018,0.1852,0.4783,0.1841,0.2087
,,,,,,,,,,,,,,,,,,,,,,,,,,,,,,,,,,,,0.0000,0.7122,0.1356,0.6999,0.7569,0.2791,0.2272,0.2825,0.5662,0.0618,0.5068,0.1395,0.5662,0.6076,0.2778,0.2370,0.7662,0.6189,0.4804,0.0439,0.9367,0.5485,0.4974,0.6112,0.0776,0.3065,0.2559,0.4792,0.0610,0.3104,0.6593,0.6112,0.2364,0.2472,0.2489,0.2093,0.3539,0.0693,0.1435,0.1495,0.0456,0.7694,0.0569,0.2760,0.1790,0.2118,0.5662,0.8478,0.8542,0.7730,0.3049,0.0907,0.2969,0.2480,0.2254,0.8196,0.5656,0.1881,0.5068,0.5631,0.2448,0.4692,0.2790,0.3127,0.3740,0.7969,0.5847,0.5403,0.0988,0.0058,0.4970,0.0709,0.3907,0.3907,0.6240,0.0791,0.1967,0.3649,0.2127,0.4588,0.3784,0.0907,0.0791,0.1938,0.2190,0.0199,0.5023,0.0709,0.6112,0.2456,0.0482,0.6397,0.5498,0.5088,0.3784,0.8854,0.3797,0.5572,0.6646,0.8876,0.8158,0.2272,0.3892,0.2325,0.2741,0.4935,0.7337,0.1938,0.8218,0.1216,0.3942,0.6506,0.2480,0.4289
,,,,,,,,,,,,,,,,,,,,,,,,,,,,,,,,,,,,,0.0000,0.5425,0.0043,0.9652,0.5713,0.5651,0.4636,0.2282,0.5898,0.2650,0.5528,0.2282,0.1422,0.4723,0.6812,0.8895,0.2345,0.8820,0.7077,1.0000,0.2025,0.3291,0.6324,0.6757,0.7069,0.5108,0.3141,0.6000,0.6784,0.7486,0.6324,0.5434,0.7503,0.7260,0.4976,0.4655,0.7093,0.6302,0.6962,0.6925,0.8616,0.6415,0.5320,0.5169,0.6095,0.2282,0.3709,0.3668,0.8300,0.4879,0.6533,0.4847,0.4717,0.4896,0.9426,0.5644,0.5584,0.2650,0.3056,0.5063,0.3738,0.4511,0.4879,0.3827,0.6281,0.8710,0.2583,0.5782,0.6758,0.3127,0.6184,0.7739,0.7739,0.1674,0.6045,0.6767,0.4661,0.5037,0.2992,0.3711,0.6351,0.6045,0.5182,0.5872,0.6409,0.3730,0.6184,0.6324,0.5266,0.6773,0.9307,0.2302,0.5973,0.3711,0.9056,0.3778,0.2600,0.7041,0.8855,0.9707,0.5651,0.8022,0.7285,0.5943,0.3052,0.0637,0.6987,0.9243,0.5838,0.3582,0.3577,0.4717,0.3365
,,,,,,,,,,,,,,,,,,,,,,,,,,,,,,,,,,,,,,0.0000,0.5357,0.7785,0.1076,0.1998,0.1715,0.3465,0.0267,0.3000,0.0628,0.3465,0.4214,0.0700,0.2959,0.7594,0.5131,0.5665,0.1423,0.9477,0.3746,0.2594,0.5784,0.1413,0.3630,0.0323,0.2536,0.0231,0.3501,0.6403,0.5784,0.1917,0.3408,0.3256,0.0539,0.1058,0.1752,0.1704,0.2290,0.1270,0.7558,0.0839,0.2314,0.0535,0.2196,0.3465,0.7558,0.7594,0.7528,0.0671,0.1180,0.2190,0.1092,0.0560,0.8193,0.5298,0.0540,0.3000,0.4596,0.0444,0.3677,0.1119,0.2327,0.1791,0.7450,0.6218,0.3169,0.0406,0.0952,0.2630,0.0647,0.4577,0.4577,0.4112,0.0553,0.2571,0.2877,0.0315,0.2834,0.2114,0.0932,0.0553,0.0282,0.2092,0.0623,0.4038,0.0647,0.5784,0.0430,0.1126,0.6820,0.3375,0.4839,0.2114,0.8711,0.2230,0.3268,0.6357,0.8702,0.8266,0.1998,0.4713,0.3250,0.2630,0.3655,0.5837,0.2715,0.8161,0.0504,0.2145,0.5639,0.1092,0.2784
,,,,,,,,,,,,,,,,,,,,,,,,,,,,,,,,,,,,,,,0.0000,0.9514,0.5721,0.5434,0.4463,0.2302,0.5811,0.2600,0.5400,0.2302,0.1339,0.4691,0.6566,0.8616,0.1848,0.8574,0.6924,1.0000,0.1864,0.3328,0.5802,0.6593,0.6784,0.5103,0.3127,0.5888,0.6489,0.7041,0.5802,0.5222,0.7260,0.7008,0.4897,0.4674,0.6993,0.6118,0.6762,0.6773,0.8300,0.6320,0.5080,0.5068,0.5872,0.2302,0.3668,0.3709,0.7949,0.4885,0.6449,0.4624,0.4608,0.4828,0.9243,0.5104,0.5559,0.2600,0.2603,0.5048,0.3384,0.4428,0.4631,0.3755,0.5837,0.8414,0.2600,0.5660,0.6639,0.3141,0.6045,0.7434,0.7434,0.1746,0.5910,0.6544,0.4371,0.4988,0.2847,0.3582,0.6277,0.5910,0.5139,0.5651,0.6299,0.3325,0.6045,0.5802,0.5270,0.6622,0.9105,0.2282,0.5499,0.3582,0.8855,0.3612,0.2650,0.6563,0.8632,0.9580,0.5434,0.7739,0.7052,0.5671,0.2745,0.0593,0.6767,0.9032,0.5779,0.3475,0.3037,0.4608,0.3165
,,,,,,,,,,,,,,,,,,,,,,,,,,,,,,,,,,,,,,,,0.0000,0.8436,0.6712,0.7161,0.8820,0.7695,0.8344,0.7383,0.8820,0.8856,0.8086,0.6306,0.2318,0.7566,0.4542,0.7330,0.7384,0.8179,0.8603,0.4780,0.7181,0.5833,0.8265,0.8455,0.7530,0.5845,0.3907,0.4780,0.6782,0.6231,0.6206,0.7728,0.8454,0.7837,0.6928,0.6802,0.7324,0.3387,0.7711,0.6592,0.7572,0.6605,0.8820,1.0000,1.0000,0.4503,0.8364,0.7850,0.6792,0.7517,0.7813,0.2924,0.4992,0.8138,0.8344,0.7024,0.8170,0.6690,0.7706,0.6731,0.7904,0.8797,0.3055,0.8673,0.7443,0.7548,0.8603,0.7358,0.5156,0.5156,0.9144,0.7380,0.6543,0.6515,0.7947,0.7798,0.7588,0.7854,0.7380,0.7957,0.6652,0.7572,0.6703,0.7358,0.4780,0.8328,0.7321,0.2249,0.8653,0.4995,0.7588,0.8233,0.7481,0.8824,0.4548,0.8838,0.1647,0.6712,0.5213,0.6340,0.6334,0.7200,0.9745,0.6550,0.3887,0.7905,0.7737,0.7398,0.7517,0.7415
,,,,,,,,,,,,,,,,,,,,,,,,,,,,,,,,,,,,,,,,,0.0000,0.3522,0.2956,0.3800,0.1246,0.3535,0.2010,0.3800,0.4718,0.1349,0.4574,0.8215,0.5949,0.6889,0.3193,0.9647,0.4435,0.2823,0.6753,0.3143,0.5173,0.0787,0.2981,0.1691,0.5036,0.7274,0.6753,0.3395,0.5039,0.4887,0.1547,0.1313,0.2123,0.3334,0.4002,0.3023,0.8162,0.1398,0.3764,0.1706,0.3791,0.3800,0.7785,0.7782,0.8113,0.1032,0.1254,0.3538,0.2162,0.1485,0.8681,0.6362,0.0383,0.3535,0.5545,0.0977,0.4795,0.2022,0.3698,0.2526,0.7914,0.7265,0.3501,0.1841,0.2300,0.2968,0.2238,0.5988,0.5988,0.4339,0.2098,0.4232,0.4190,0.1147,0.3650,0.3025,0.0915,0.2098,0.1064,0.3654,0.1859,0.5121,0.2238,0.6753,0.0636,0.2857,0.7737,0.3812,0.6029,0.3025,0.9005,0.3251,0.3496,0.7204,0.8986,0.8771,0.3522,0.6118,0.4876,0.4177,0.4646,0.6178,0.4385,0.8638,0.0658,0.2968,0.6429,0.2162,0.3767
,,,,,,,,,,,,,,,,,,,,,,,,,,,,,,,,,,,,,,,,,,0.0000,0.0270,0.3631,0.1970,0.2808,0.1221,0.3631,0.4090,0.2194,0.0673,0.6550,0.4159,0.3704,0.1775,0.9209,0.3266,0.2836,0.4266,0.1343,0.1351,0.2827,0.2488,0.1704,0.1252,0.4991,0.4266,0.0015,0.1024,0.0882,0.1632,0.2911,0.2804,0.0663,0.0778,0.1685,0.6543,0.2252,0.0415,0.1426,0.0049,0.3631,0.7644,0.7773,0.6550,0.2865,0.2598,0.0502,0.1007,0.1754,0.7364,0.3671,0.2785,0.2808,0.3415,0.2512,0.2277,0.1274,0.0581,0.1224,0.6782,0.4503,0.3308,0.1460,0.2064,0.2749,0.1439,0.2397,0.2397,0.4458,0.1431,0.0270,0.1174,0.2105,0.2143,0.1248,0.2522,0.1431,0.2146,0.0015,0.1945,0.2648,0.1439,0.4266,0.3014,0.1609,0.5310,0.3372,0.3028,0.1248,0.8219,0.1184,0.3573,0.4999,0.8239,0.7429,0.0000,0.2536,0.0924,0.0489,0.2536,0.5925,0.0383,0.7347,0.2409,0.1434,0.4608,0.1007,0.1771
,,,,,,,,,,,,,,,,,,,,,,,,,,,,,,,,,,,,,,,,,,,0.0000,0.2451,0.1941,0.1771,0.1182,0.2451,0.3069,0.1508,0.1434,0.6782,0.3703,0.4675,0.2402,0.9362,0.2397,0.1637,0.4416,0.1898,0.2143,0.2151,0.1363,0.1800,0.1948,0.5214,0.4416,0.0176,0.1998,0.1771,0.1217,0.2006,0.3216,0.1134,0.1536,0.2254,0.6712,0.2430,0.0577,0.1158,0.0516,0.2451,0.7054,0.7161,0.6652,0.2072,0.2754,0.0448,0.0619,0.1268,0.7596,0.3827,0.2367,0.1771,0.3039,0.1903,0.1998,0.0723,0.0524,0.0383,0.6550,0.5180,0.2143,0.1495,0.2472,0.1560,0.1685,0.3266,0.3266,0.3266,0.1609,0.1022,0.1117,0.1596,0.1351,0.0577,0.2589,0.1609,0.1695,0.0383,0.2196,0.2365,0.1685,0.4416,0.2368,0.2116,0.5984,0.2254,0.3300,0.0577,0.8239,0.0581,0.2351,0.5135,0.8219,0.7745,0.0270,0.3485,0.1854,0.0882,0.2041,0.5017,0.1224,0.7532,0.2231,0.0673,0.4266,0.0619,0.1174
,,,,,,,,,,,,,,,,,,,,,,,,,,,,,,,,,,,,,,,,,,,,0.0000,0.4056,0.0320,0.3586,0.0000,0.1010,0.2594,0.4976,0.8084,0.3431,0.7693,0.5564,0.9829,0.0914,0.0949,0.5848,0.5122,0.5134,0.3044,0.0856,0.4207,0.4786,0.6750,0.5848,0.3372,0.5798,0.5489,0.2908,0.2507,0.5669,0.4491,0.5300,0.5366,0.7876,0.4741,0.3195,0.3145,0.4165,0.0000,0.5623,0.5609,0.7662,0.2776,0.4921,0.2654,0.2562,0.2808,0.8719,0.5313,0.3650,0.0320,0.3068,0.2976,0.2325,0.2318,0.2708,0.1546,0.6600,0.7670,0.0254,0.3915,0.5179,0.0842,0.4420,0.6204,0.6204,0.0638,0.4245,0.4995,0.2385,0.2980,0.0661,0.1400,0.4646,0.4245,0.3129,0.3895,0.4721,0.2710,0.4420,0.5848,0.3233,0.5171,0.8315,0.0021,0.5087,0.1400,0.8705,0.1522,0.0271,0.6459,0.8586,0.9004,0.3631,0.6536,0.5572,0.3905,0.1748,0.2942,0.5272,0.8564,0.3985,0.1262,0.4312,0.2562,0.1036
,,,,,,,,,,,,,,,,,,,,,,,,,,,,,,,,,,,,,,,,,,,,,0.0000,0.3545,0.0728,0.4056,0.4720,0.1196,0.2672,0.7588,0.5395,0.5331,0.0991,0.9438,0.4206,0.3218,0.5829,0.1088,0.3361,0.0851,0.3129,0.0191,0.3283,0.6415,0.5829,0.1941,0.3018,0.2917,0.0875,0.1674,0.1117,0.1499,0.1929,0.0888,0.7570,0.0411,0.2344,0.0781,0.2060,0.4056,0.7814,0.7862,0.7558,0.1249,0.0762,0.2322,0.1388,0.0940,0.8176,0.5345,0.0586,0.3545,0.4846,0.0903,0.3909,0.1502,0.2470,0.2274,0.7570,0.6052,0.3765,0.0440,0.0340,0.3248,0.0526,0.4287,0.4287,0.4694,0.0485,0.2274,0.3019,0.0724,0.3283,0.2520,0.0578,0.0485,0.0636,0.2009,0.0142,0.4266,0.0526,0.5829,0.0770,0.0794,0.6647,0.3944,0.4846,0.2520,0.8737,0.2610,0.3886,0.6398,0.8736,0.8218,0.1970,0.4376,0.2862,0.2559,0.3969,0.6254,0.2367,0.8159,0.0361,0.2591,0.5848,0.1388,0.3155
,,,,,,,,,,,,,,,,,,,,,,,,,,,,,,,,,,,,,,,,,,,,,,0.0000,0.2983,0.0320,0.1224,0.2232,0.4033,0.7607,0.3165,0.6912,0.4894,0.9720,0.0955,0.0767,0.5222,0.4417,0.4067,0.2742,0.0595,0.3637,0.3719,0.6141,0.5222,0.2573,0.4831,0.4515,0.2427,0.2269,0.5151,0.3729,0.4486,0.4697,0.7415,0.4217,0.2334,0.2610,0.3308,0.0320,0.5845,0.5880,0.7224,0.2503,0.4433,0.1854,0.2013,0.2356,0.8337,0.4661,0.3294,0.0000,0.2715,0.2640,0.1902,0.1835,0.1877,0.1117,0.6365,0.6940,0.0068,0.3326,0.4593,0.0636,0.3786,0.5366,0.5366,0.1038,0.3623,0.4117,0.1478,0.2569,0.0148,0.0859,0.4171,0.3623,0.2723,0.3053,0.4152,0.2272,0.3786,0.5222,0.2949,0.4504,0.7667,0.0271,0.4371,0.0859,0.8477,0.0922,0.0148,0.5883,0.8378,0.8622,0.2808,0.5700,0.4638,0.2961,0.1471,0.3239,0.4396,0.8187,0.3545,0.0771,0.3979,0.2013,0.0396
,,,,,,,,,,,,,,,,,,,,,,,,,,,,,,,,,,,,,,,,,,,,,,,0.0000,0.3586,0.4199,0.0599,0.2035,0.7229,0.4776,0.4887,0.0958,0.9372,0.3597,0.2773,0.5234,0.0480,0.2723,0.1227,0.2589,0.0562,0.2611,0.5897,0.5234,0.1182,0.2436,0.2295,0.0195,0.1208,0.1889,0.0839,0.1326,0.0835,0.7208,0.1152,0.1584,0.0073,0.1343,0.3586,0.7572,0.7648,0.7193,0.1195,0.1508,0.1552,0.0694,0.0275,0.7900,0.4701,0.1327,0.2983,0.4165,0.0902,0.3164,0.0839,0.1669,0.1636,0.7208,0.5570,0.3289,0.0286,0.1093,0.2752,0.0395,0.3715,0.3715,0.4297,0.0344,0.1636,0.2239,0.0608,0.2611,0.1827,0.1350,0.0344,0.0629,0.1275,0.0874,0.3528,0.0395,0.5234,0.1409,0.0721,0.6245,0.3429,0.4165,0.1827,0.8555,0.1868,0.3456,0.5873,0.8554,0.7958,0.1221,0.3845,0.2295,0.1797,0.3252,0.5875,0.1760,0.7879,0.1091,0.1925,0.5262,0.0694,0.2431
,,,,,,,,,,,,,,,,,,,,,,,,,,,,,,,,,,,,,,,,,,,,,,,,0.0000,0.1010,0.2594,0.4976,0.8084,0.3431,0.7693,0.5564,0.9829,0.0914,0.0949,0.5848,0.5122,0.5134,0.3044,0.0856,0.4207,0.4786,0.6750,0.5848,0.3372,0.5798,0.5489,0.2908,0.2507,0.5669,0.4491,0.5300,0.5366,0.7876,0.4741,0.3195,0.3145,0.4165,0.0000,0.5623,0.5609,0.7662,0.2776,0.4921,0.2654,0.2562,0.2808,0.8719,0.5313,0.3650,0.0320,0.3068,0.2976,0.2325,0.2318,0.2708,0.1546,0.6600,0.7670,0.0254,0.3915,0.5179,0.0842,0.4420,0.6204,0.6204,0.0638,0.4245,0.4995,0.2385,0.2980,0.0661,0.1400,0.4646,0.4245,0.3129,0.3895,0.4721,0.2710,0.4420,0.5848,0.3233,0.5171,0.8315,0.0021,0.5087,0.1400,0.8705,0.1522,0.0271,0.6459,0.8586,0.9004,0.3631,0.6536,0.5572,0.3905,0.1748,0.2942,0.5272,0.8564,0.3985,0.1262,0.4312,0.2562,0.1036
,,,,,,,,,,,,,,,,,,,,,,,,,,,,,,,,,,,,,,,,,,,,,,,,,0.0000,0.3494,0.5311,0.7880,0.2267,0.7600,0.5940,0.9864,0.0382,0.2063,0.5193,0.5526,0.5442,0.3986,0.1824,0.4790,0.5101,0.6289,0.5193,0.3861,0.6087,0.5788,0.3677,0.3531,0.6115,0.4933,0.5645,0.5763,0.7598,0.5312,0.3655,0.3849,0.4576,0.1010,0.4857,0.4925,0.7304,0.3755,0.5490,0.3174,0.3305,0.3611,0.8635,0.4580,0.4494,0.1224,0.1921,0.3911,0.1685,0.3134,0.3168,0.2412,0.5850,0.7549,0.1293,0.4510,0.5655,0.1869,0.4934,0.6030,0.6030,0.0497,0.4785,0.5343,0.2809,0.3812,0.1378,0.2158,0.5278,0.4785,0.3983,0.4329,0.5265,0.1584,0.4934,0.5193,0.4189,0.5589,0.8322,0.0951,0.4367,0.2158,0.8483,0.2171,0.1378,0.5900,0.8313,0.9012,0.4090,0.6406,0.5881,0.4272,0.1100,0.1972,0.5603,0.8425,0.4716,0.2067,0.3228,0.3305,0.1649
,,,,,,,,,,,,,,,,,,,,,,,,,,,,,,,,,,,,,,,,,,,,,,,,,,0.0000,0.3526,0.7725,0.4822,0.6345,0.2520,0.9586,0.3129,0.1666,0.5867,0.1975,0.4202,0.0528,0.1686,0.1290,0.4001,0.6532,0.5867,0.2032,0.4129,0.3911,0.0130,0.0138,0.2997,0.2110,0.2926,0.2317,0.7644,0.1924,0.2430,0.0277,0.2546,0.2594,0.7188,0.7202,0.7568,0.0320,0.2214,0.2144,0.0743,0.0077,0.8328,0.5392,0.1032,0.2232,0.4336,0.0329,0.3479,0.0626,0.2281,0.1143,0.7287,0.6671,0.2294,0.0960,0.2263,0.1726,0.1400,0.5192,0.5192,0.3239,0.1244,0.3141,0.2834,0.0312,0.2255,0.1606,0.1895,0.1244,0.0375,0.2365,0.1803,0.3839,0.1400,0.5867,0.0698,0.2118,0.7274,0.2554,0.5016,0.1606,0.8709,0.1782,0.2347,0.6426,0.8677,0.8473,0.2194,0.5389,0.3949,0.2913,0.3306,0.5225,0.3352,0.8260,0.1253,0.1568,0.5406,0.0743,0.2347
,,,,,,,,,,,,,,,,,,,,,,,,,,,,,,,,,,,,,,,,,,,,,,,,,,,0.0000,0.6438,0.4847,0.2743,0.1859,0.9054,0.4355,0.4167,0.4309,0.1552,0.0658,0.4072,0.3785,0.2322,0.0670,0.4932,0.4309,0.0788,0.0109,0.0071,0.2770,0.4370,0.2990,0.1030,0.0848,0.1838,0.6508,0.2722,0.0430,0.2443,0.0502,0.4976,0.8328,0.8468,0.6592,0.4218,0.3050,0.0747,0.2191,0.2948,0.7216,0.3711,0.3774,0.4033,0.4034,0.3716,0.2791,0.2585,0.0844,0.2836,0.7161,0.3900,0.4638,0.2170,0.2326,0.4098,0.1944,0.1596,0.1596,0.5796,0.2006,0.0404,0.1441,0.3278,0.3148,0.2116,0.3068,0.2006,0.3238,0.0577,0.2377,0.3174,0.1944,0.4309,0.4198,0.1832,0.4679,0.4674,0.2943,0.2116,0.8293,0.2008,0.4940,0.5043,0.8346,0.7159,0.0673,0.1635,0.0052,0.0261,0.3269,0.6984,0.0415,0.7263,0.3208,0.2391,0.5171,0.2191,0.2595
,,,,,,,,,,,,,,,,,,,,,,,,,,,,,,,,,,,,,,,,,,,,,,,,,,,,0.0000,0.5837,0.5604,0.7407,0.9218,0.7200,0.8035,0.3270,0.7229,0.6015,0.7964,0.7813,0.7459,0.5937,0.2249,0.3270,0.6571,0.6502,0.6410,0.7439,0.8079,0.7872,0.6928,0.6921,0.7380,0.0164,0.7682,0.6340,0.7334,0.6550,0.8084,0.9864,0.9937,0.0637,0.8023,0.7835,0.6438,0.7199,0.7501,0.1647,0.3830,0.7936,0.7607,0.5604,0.7880,0.5772,0.7346,0.6334,0.7394,0.5596,0.3879,0.7986,0.7341,0.7589,0.7978,0.7321,0.5588,0.5588,0.8400,0.7324,0.6652,0.6015,0.7647,0.7036,0.7030,0.7794,0.7324,0.7705,0.6543,0.7551,0.5601,0.7321,0.3270,0.8065,0.7358,0.3907,0.7876,0.4299,0.7030,0.4966,0.6864,0.8168,0.2478,0.5796,0.2924,0.6550,0.5772,0.6592,0.6198,0.6203,0.8964,0.6712,0.1473,0.7768,0.7161,0.5296,0.7199,0.6679
,,,,,,,,,,,,,,,,,,,,,,,,,,,,,,,,,,,,,,,,,,,,,,,,,,,,,0.0000,0.5973,0.5910,0.9712,0.2025,0.4208,0.2052,0.5528,0.4661,0.5330,0.3778,0.5303,0.4371,0.3417,0.2052,0.4031,0.5402,0.5137,0.4680,0.5144,0.6367,0.4970,0.5383,0.5782,0.5403,0.5791,0.3711,0.4682,0.4463,0.3431,0.5403,0.5837,0.4992,0.5226,0.5998,0.3475,0.4238,0.4697,0.7188,0.1393,0.5584,0.3165,0.0671,0.5216,0.1746,0.4269,0.3346,0.3827,0.3709,0.5257,0.3588,0.5044,0.5900,0.3965,0.5252,0.4878,0.4878,0.3384,0.5173,0.5018,0.2847,0.4950,0.2733,0.3331,0.5878,0.5173,0.5105,0.4303,0.5659,0.1422,0.5252,0.2052,0.5531,0.5660,0.6563,0.3177,0.2181,0.3331,0.7119,0.3141,0.3832,0.2947,0.6921,0.7897,0.4159,0.5268,0.5320,0.3965,0.1650,0.2524,0.5222,0.6820,0.5553,0.3392,0.0637,0.4238,0.2600
,,,,,,,,,,,,,,,,,,,,,,,,,,,,,,,,,,,,,,,,,,,,,,,,,,,,,,0.0000,0.4358,0.8422,0.6599,0.7368,0.3724,0.4165,0.2068,0.6663,0.7108,0.5003,0.2185,0.4116,0.3724,0.3872,0.2494,0.2538,0.5650,0.7049,0.5329,0.3839,0.3477,0.4376,0.5946,0.5252,0.3601,0.5326,0.3415,0.7693,0.9700,0.9791,0.6302,0.6853,0.5490,0.4034,0.5263,0.5820,0.6348,0.3056,0.6292,0.6912,0.4816,0.6395,0.4245,0.5650,0.4046,0.6094,0.8036,0.1573,0.7472,0.4931,0.4849,0.7363,0.4641,0.1072,0.1072,0.8159,0.4728,0.3127,0.3756,0.6043,0.5990,0.5568,0.5558,0.4728,0.5980,0.3551,0.4970,0.4367,0.4641,0.3724,0.6720,0.4407,0.2288,0.7412,0.1910,0.5568,0.8317,0.5430,0.7731,0.4553,0.8517,0.5899,0.3704,0.1001,0.2642,0.3156,0.5054,0.8941,0.3072,0.6612,0.5776,0.5837,0.6126,0.5263,0.5343
,,,,,,,,,,,,,,,,,,,,,,,,,,,,,,,,,,,,,,,,,,,,,,,,,,,,,,,0.0000,0.9316,0.5271,0.4874,0.5738,0.0309,0.2544,0.2665,0.4635,0.0658,0.2579,0.6248,0.5738,0.1876,0.1955,0.1962,0.1742,0.3391,0.1137,0.0954,0.1003,0.0015,0.7442,0.0966,0.2271,0.1399,0.1607,0.5564,0.8456,0.8537,0.7484,0.2868,0.1315,0.2510,0.2112,0.1926,0.7994,0.5251,0.2270,0.4894,0.5301,0.2224,0.4300,0.2467,0.2654,0.3474,0.7791,0.5446,0.5295,0.0551,0.0464,0.4847,0.0255,0.3407,0.3407,0.6189,0.0341,0.1460,0.3192,0.1824,0.4315,0.3468,0.1329,0.0341,0.1687,0.1684,0.0583,0.4642,0.0255,0.5738,0.2764,0.0034,0.6049,0.5366,0.4641,0.3468,0.8728,0.3448,0.5498,0.6311,0.8756,0.7968,0.1775,0.3401,0.1830,0.2214,0.4598,0.7276,0.1438,0.8014,0.1600,0.3656,0.6225,0.2112,0.3954
,,,,,,,,,,,,,,,,,,,,,,,,,,,,,,,,,,,,,,,,,,,,,,,,,,,,,,,,0.0000,0.9723,0.9755,0.9129,0.9277,0.8934,0.9620,0.9727,0.9393,0.8958,0.9030,0.9129,0.9235,0.9010,0.9012,0.9492,0.9678,0.9448,0.9235,0.9171,0.9316,0.9521,0.9432,0.9196,0.9434,0.9164,0.9829,1.0000,1.0000,0.9756,0.9648,0.9451,0.9264,0.9436,0.9518,0.9301,0.9070,0.9570,0.9720,0.9543,0.9595,0.9353,0.9504,0.9273,0.9580,1.0000,0.8181,0.9792,0.9376,0.9370,0.9761,0.9340,0.8719,0.8719,0.9896,0.9350,0.9118,0.9236,0.9546,0.9585,0.9509,0.9467,0.9350,0.9542,0.9188,0.9401,0.9414,0.9340,0.9129,0.9619,0.9316,0.7795,0.9794,0.8946,0.9509,1.0000,0.9488,0.9824,0.9233,1.0000,0.8024,0.9209,0.8695,0.9029,0.9113,0.9502,1.0000,0.9104,0.9678,0.9488,0.9544,0.9748,0.9436,0.9503
,,,,,,,,,,,,,,,,,,,,,,,,,,,,,,,,,,,,,,,,,,,,,,,,,,,,,,,,,0.0000,0.1898,0.4362,0.4822,0.4343,0.3670,0.1594,0.4221,0.4003,0.5453,0.4362,0.3060,0.5100,0.4793,0.3198,0.3284,0.5599,0.4170,0.4828,0.5096,0.6944,0.4786,0.2791,0.3317,0.3716,0.0914,0.5306,0.5431,0.6690,0.3471,0.5002,0.2376,0.2760,0.3159,0.8077,0.3738,0.4127,0.0955,0.1552,0.3565,0.0766,0.2655,0.2339,0.1998,0.5588,0.6564,0.1151,0.3921,0.5070,0.1693,0.4301,0.4761,0.4761,0.0539,0.4165,0.4458,0.1902,0.3398,0.0904,0.1635,0.4798,0.4165,0.3571,0.3485,0.4697,0.1100,0.4301,0.4362,0.3889,0.4925,0.7441,0.0787,0.3454,0.1635,0.8170,0.1594,0.1296,0.5120,0.8032,0.8461,0.3266,0.5163,0.4932,0.3316,0.0352,0.2514,0.4717,0.7878,0.4270,0.1596,0.2878,0.2760,0.1038
,,,,,,,,,,,,,,,,,,,,,,,,,,,,,,,,,,,,,,,,,,,,,,,,,,,,,,,,,,0.0000,0.6055,0.4399,0.4938,0.2078,0.0104,0.3417,0.4635,0.6826,0.6055,0.2576,0.5028,0.4719,0.2034,0.1518,0.4997,0.3716,0.4556,0.4665,0.7886,0.3965,0.2391,0.2296,0.3376,0.0949,0.6338,0.6313,0.7736,0.1803,0.4163,0.1852,0.1688,0.1923,0.8627,0.5564,0.2717,0.0767,0.3807,0.1991,0.3020,0.1422,0.2005,0.0673,0.7029,0.7429,0.0666,0.3114,0.4450,0.0067,0.3657,0.6075,0.6075,0.1579,0.3468,0.4219,0.2592,0.2076,0.1102,0.0579,0.3834,0.3468,0.2182,0.3103,0.3950,0.3404,0.3657,0.6055,0.2238,0.4457,0.8024,0.0989,0.5296,0.0579,0.8766,0.0840,0.0654,0.6618,0.8683,0.8845,0.2836,0.6352,0.4773,0.3164,0.2571,0.3944,0.4502,0.8513,0.3116,0.0430,0.4969,0.1688,0.1437
,,,,,,,,,,,,,,,,,,,,,,,,,,,,,,,,,,,,,,,,,,,,,,,,,,,,,,,,,,,0.0000,0.5415,0.3787,0.6294,0.5655,0.5639,0.3620,0.0905,0.0000,0.4256,0.4544,0.4365,0.5485,0.6370,0.6418,0.4920,0.5016,0.5666,0.3109,0.6040,0.3900,0.5353,0.4347,0.5848,0.8278,0.8646,0.3055,0.6323,0.6271,0.3947,0.5060,0.5567,0.4872,0.0593,0.6318,0.5222,0.2103,0.6155,0.2676,0.5249,0.3796,0.5180,0.4301,0.1758,0.5793,0.5431,0.5952,0.5905,0.5446,0.3390,0.3390,0.6204,0.5431,0.4608,0.3288,0.5814,0.4430,0.4608,0.6207,0.5431,0.5916,0.4296,0.5850,0.2386,0.5446,0.0000,0.6460,0.5603,0.3237,0.5527,0.1296,0.4608,0.6174,0.4365,0.6084,0.0849,0.6278,0.5540,0.4266,0.3691,0.4608,0.3796,0.3117,0.6051,0.4729,0.4645,0.6099,0.4783,0.1255,0.5060,0.3979
,,,,,,,,,,,,,,,,,,,,,,,,,,,,,,,,,,,,,,,,,,,,,,,,,,,,,,,,,,,,0.0000,0.2239,0.2561,0.4140,0.0765,0.2246,0.5975,0.5415,0.1427,0.1701,0.1677,0.1208,0.2858,0.1442,0.0604,0.0722,0.0286,0.7257,0.1152,0.1827,0.0881,0.1221,0.5122,0.8277,0.8370,0.7292,0.2694,0.1508,0.2035,0.1596,0.1386,0.7864,0.4900,0.2258,0.4417,0.4887,0.2146,0.3845,0.1940,0.2168,0.2948,0.7572,0.5211,0.4839,0.0621,0.0733,0.4362,0.0395,0.3141,0.3141,0.5794,0.0456,0.1151,0.2723,0.1731,0.3820,0.2953,0.1497,0.0456,0.1646,0.1275,0.0784,0.4199,0.0395,0.5415,0.2684,0.0283,0.5858,0.4913,0.4273,0.2953,0.8626,0.2927,0.5054,0.6028,0.8651,0.7848,0.1343,0.3164,0.1584,0.1797,0.4136,0.6976,0.1159,0.7879,0.1659,0.3140,0.5875,0.1596,0.3456
,,,,,,,,,,,,,,,,,,,,,,,,,,,,,,,,,,,,,,,,,,,,,,,,,,,,,,,,,,,,,0.0000,0.4714,0.4515,0.3008,0.0020,0.4410,0.3787,0.1472,0.0636,0.0595,0.3453,0.5028,0.3663,0.1730,0.1523,0.2525,0.6113,0.3406,0.1106,0.3129,0.1174,0.5134,0.8513,0.8673,0.6230,0.4866,0.3720,0.1441,0.2903,0.3629,0.6865,0.3165,0.4420,0.4067,0.3756,0.4387,0.2424,0.3297,0.1432,0.3573,0.7036,0.3224,0.4764,0.2855,0.3023,0.4831,0.2628,0.0904,0.0904,0.6027,0.2691,0.1073,0.0973,0.3946,0.3030,0.2866,0.3744,0.2691,0.3923,0.1252,0.3071,0.2809,0.2628,0.3787,0.4839,0.2517,0.4057,0.4786,0.2333,0.2866,0.8106,0.2671,0.5107,0.4565,0.8189,0.6791,0.1351,0.0955,0.0709,0.0800,0.3019,0.7211,0.1084,0.6927,0.3875,0.3148,0.4947,0.2903,0.2371
,,,,,,,,,,,,,,,,,,,,,,,,,,,,,,,,,,,,,,,,,,,,,,,,,,,,,,,,,,,,,,0.0000,0.2178,0.1014,0.4536,0.6893,0.6294,0.2673,0.4627,0.4433,0.0714,0.0553,0.2750,0.2715,0.3489,0.2463,0.7896,0.1621,0.3060,0.0883,0.3158,0.3044,0.7432,0.7435,0.7832,0.0255,0.1904,0.2785,0.1348,0.0649,0.8500,0.5859,0.0549,0.2742,0.4884,0.0227,0.4078,0.1203,0.2934,0.1699,0.7580,0.6986,0.2742,0.1077,0.2018,0.2185,0.1538,0.5625,0.5625,0.3641,0.1374,0.3705,0.3463,0.0321,0.2836,0.2200,0.1541,0.1374,0.0296,0.2990,0.1528,0.4425,0.1538,0.6294,0.0137,0.2265,0.7525,0.3037,0.5511,0.2200,0.8854,0.2411,0.2761,0.6802,0.8828,0.8619,0.2827,0.5794,0.4453,0.3532,0.3899,0.5609,0.3898,0.8444,0.0854,0.2144,0.5875,0.1348,0.2959
,,,,,,,,,,,,,,,,,,,,,,,,,,,,,,,,,,,,,,,,,,,,,,,,,,,,,,,,,,,,,,,0.0000,0.3263,0.4198,0.6485,0.5655,0.2238,0.4617,0.4293,0.1950,0.1658,0.4859,0.3426,0.4238,0.4427,0.7646,0.3853,0.2008,0.2167,0.3019,0.0856,0.6198,0.6206,0.7481,0.1919,0.4073,0.1495,0.1543,0.1862,0.8469,0.5137,0.2780,0.0595,0.3351,0.2076,0.2557,0.1329,0.1546,0.0581,0.6731,0.7160,0.0595,0.2944,0.4281,0.0017,0.3449,0.5710,0.5710,0.1523,0.3271,0.3864,0.2127,0.2061,0.0800,0.0373,0.3775,0.3271,0.2200,0.2749,0.3803,0.2927,0.3449,0.5655,0.2374,0.4222,0.7820,0.0842,0.4857,0.0373,0.8627,0.0489,0.0636,0.6259,0.8542,0.8721,0.2488,0.6009,0.4410,0.2689,0.2142,0.3743,0.4153,0.8339,0.3092,0.0261,0.4544,0.1543,0.1069
,,,,,,,,,,,,,,,,,,,,,,,,,,,,,,,,,,,,,,,,,,,,,,,,,,,,,,,,,,,,,,,,0.0000,0.2941,0.6238,0.5639,0.1698,0.2638,0.2544,0.0849,0.1891,0.1163,0.1201,0.1574,0.0564,0.7452,0.0530,0.2097,0.0698,0.1755,0.4207,0.7847,0.7911,0.7450,0.1438,0.0895,0.2123,0.1326,0.0943,0.8066,0.5137,0.0942,0.3637,0.4724,0.1033,0.3753,0.1498,0.2257,0.2319,0.7505,0.5788,0.3921,0.0263,0.0373,0.3415,0.0280,0.3941,0.3941,0.4863,0.0262,0.1926,0.2810,0.0763,0.3276,0.2494,0.0758,0.0262,0.0686,0.1724,0.0224,0.4110,0.0280,0.5639,0.1103,0.0483,0.6407,0.4063,0.4602,0.2494,0.8697,0.2544,0.4075,0.6235,0.8697,0.8091,0.1704,0.4025,0.2494,0.2257,0.3868,0.6319,0.2007,0.8060,0.0615,0.2597,0.5743,0.1326,0.3086
,,,,,,,,,,,,,,,,,,,,,,,,,,,,,,,,,,,,,,,,,,,,,,,,,,,,,,,,,,,,,,,,,0.0000,0.4281,0.3620,0.1351,0.0705,0.0636,0.3286,0.4812,0.3684,0.1702,0.1553,0.2544,0.6015,0.3372,0.0970,0.2982,0.1117,0.4786,0.8344,0.8513,0.6113,0.4668,0.3691,0.1262,0.2721,0.3451,0.6819,0.2992,0.4292,0.3719,0.3468,0.4219,0.2153,0.3095,0.1239,0.3308,0.6853,0.3239,0.4416,0.2766,0.3028,0.4515,0.2580,0.0955,0.0955,0.5700,0.2628,0.1084,0.0754,0.3777,0.2697,0.2595,0.3698,0.2628,0.3774,0.1174,0.3046,0.2530,0.2580,0.3620,0.4677,0.2525,0.4103,0.4435,0.2185,0.2595,0.8034,0.2393,0.4764,0.4410,0.8106,0.6781,0.1252,0.1038,0.0771,0.0705,0.2713,0.6940,0.1117,0.6865,0.3780,0.2866,0.4681,0.2721,0.2058
,,,,,,,,,,,,,,,,,,,,,,,,,,,,,,,,,,,,,,,,,,,,,,,,,,,,,,,,,,,,,,,,,,0.0000,0.0905,0.4999,0.5086,0.4941,0.6162,0.7002,0.6879,0.5546,0.5583,0.6194,0.2172,0.6575,0.4679,0.6028,0.5027,0.6750,0.9025,0.9309,0.2249,0.6941,0.6784,0.4765,0.5797,0.6242,0.3937,0.1520,0.6883,0.6141,0.3321,0.6771,0.3721,0.5985,0.4628,0.5984,0.4548,0.2152,0.6663,0.6062,0.6469,0.6713,0.6050,0.3949,0.3949,0.7130,0.6046,0.5214,0.4178,0.6457,0.5387,0.5472,0.6732,0.6046,0.6543,0.4999,0.6400,0.3473,0.6050,0.0905,0.7036,0.6148,0.2308,0.6459,0.2149,0.5472,0.5737,0.5249,0.6922,0.0074,0.6002,0.4716,0.4991,0.4208,0.5171,0.4533,0.4208,0.7374,0.5310,0.3725,0.6665,0.5642,0.2668,0.5797,0.4941
,,,,,,,,,,,,,,,,,,,,,,,,,,,,,,,,,,,,,,,,,,,,,,,,,,,,,,,,,,,,,,,,,,,0.0000,0.4256,0.4544,0.4365,0.5485,0.6370,0.6418,0.4920,0.5016,0.5666,0.3109,0.6040,0.3900,0.5353,0.4347,0.5848,0.8278,0.8646,0.3055,0.6323,0.6271,0.3947,0.5060,0.5567,0.4872,0.0593,0.6318,0.5222,0.2103,0.6155,0.2676,0.5249,0.3796,0.5180,0.4301,0.1758,0.5793,0.5431,0.5952,0.5905,0.5446,0.3390,0.3390,0.6204,0.5431,0.4608,0.3288,0.5814,0.4430,0.4608,0.6207,0.5431,0.5916,0.4296,0.5850,0.2386,0.5446,0.0000,0.6460,0.5603,0.3237,0.5527,0.1296,0.4608,0.6174,0.4365,0.6084,0.0849,0.6278,0.5540,0.4266,0.3691,0.4608,0.3796,0.3117,0.6051,0.4729,0.4645,0.6099,0.4783,0.1255,0.5060,0.3979
,,,,,,,,,,,,,,,,,,,,,,,,,,,,,,,,,,,,,,,,,,,,,,,,,,,,,,,,,,,,,,,,,,,,0.0000,0.1184,0.1024,0.1520,0.2713,0.2872,0.0725,0.0898,0.1775,0.6550,0.2267,0.0404,0.1342,0.0102,0.3372,0.7517,0.7644,0.6543,0.2689,0.2611,0.0448,0.0896,0.1630,0.7391,0.3660,0.2683,0.2573,0.3300,0.2372,0.2177,0.1132,0.0524,0.1022,0.6712,0.4608,0.3053,0.1438,0.2124,0.2488,0.1461,0.2536,0.2536,0.4203,0.1439,0.0383,0.1117,0.1979,0.1948,0.1077,0.2517,0.1439,0.2035,0.0049,0.1974,0.2548,0.1461,0.4256,0.2869,0.1685,0.5421,0.3124,0.3039,0.1077,0.8206,0.1024,0.3308,0.4991,0.8219,0.7476,0.0015,0.2694,0.1077,0.0524,0.2397,0.5728,0.0516,0.7364,0.2353,0.1248,0.4503,0.0896,0.1612
,,,,,,,,,,,,,,,,,,,,,,,,,,,,,,,,,,,,,,,,,,,,,,,,,,,,,,,,,,,,,,,,,,,,,0.0000,0.0017,0.3300,0.5016,0.3126,0.1249,0.0939,0.1963,0.6610,0.2975,0.0844,0.2926,0.0759,0.5798,0.8744,0.8878,0.6731,0.4819,0.3293,0.1261,0.2749,0.3498,0.7234,0.3965,0.4224,0.4831,0.4577,0.4256,0.3316,0.3192,0.1295,0.3576,0.7481,0.3796,0.5457,0.2526,0.2496,0.4939,0.2215,0.1480,0.1480,0.6587,0.2307,0.0524,0.1877,0.3814,0.3882,0.2866,0.3346,0.2307,0.3738,0.0882,0.2614,0.3696,0.2215,0.4544,0.4724,0.1986,0.4533,0.5489,0.3156,0.2866,0.8378,0.2689,0.5762,0.5249,0.8458,0.7131,0.1024,0.1466,0.0058,0.0489,0.3885,0.7631,0.0489,0.7307,0.3587,0.3167,0.5655,0.2749,0.3262
,,,,,,,,,,,,,,,,,,,,,,,,,,,,,,,,,,,,,,,,,,,,,,,,,,,,,,,,,,,,,,,,,,,,,,0.0000,0.3108,0.4786,0.3130,0.1185,0.0929,0.1956,0.6502,0.2920,0.0666,0.2751,0.0659,0.5489,0.8603,0.8744,0.6610,0.4606,0.3245,0.1043,0.2540,0.3298,0.7175,0.3778,0.4077,0.4515,0.4306,0.4071,0.3048,0.2966,0.1063,0.3295,0.7318,0.3756,0.5146,0.2410,0.2479,0.4617,0.2137,0.1466,0.1466,0.6302,0.2215,0.0489,0.1645,0.3623,0.3569,0.2571,0.3282,0.2215,0.3569,0.0759,0.2564,0.3425,0.2137,0.4365,0.4546,0.1963,0.4520,0.5176,0.2982,0.2571,0.8303,0.2386,0.5457,0.5086,0.8378,0.7099,0.0882,0.1480,0.0071,0.0343,0.3595,0.7400,0.0478,0.7234,0.3473,0.2866,0.5412,0.2540,0.2961
,,,,,,,,,,,,,,,,,,,,,,,,,,,,,,,,,,,,,,,,,,,,,,,,,,,,,,,,,,,,,,,,,,,,,,,0.0000,0.0487,0.2438,0.1436,0.2123,0.1567,0.7382,0.1488,0.1921,0.0036,0.1894,0.2908,0.7291,0.7333,0.7333,0.0581,0.1815,0.1740,0.0576,0.0016,0.8086,0.4976,0.1055,0.2427,0.4129,0.0460,0.3198,0.0578,0.1864,0.1217,0.7192,0.6118,0.2608,0.0532,0.1658,0.2050,0.0836,0.4462,0.4462,0.3594,0.0721,0.2375,0.2427,0.0303,0.2265,0.1556,0.1565,0.0721,0.0360,0.1756,0.1293,0.3561,0.0836,0.5485,0.0901,0.1400,0.6767,0.2810,0.4527,0.1556,0.8603,0.1665,0.2720,0.6090,0.8584,0.8198,0.1632,0.4638,0.3137,0.2292,0.3138,0.5412,0.2556,0.8038,0.1074,0.1580,0.5232,0.0576,0.2235
,,,,,,,,,,,,,,,,,,,,,,,,,,,,,,,,,,,,,,,,,,,,,,,,,,,,,,,,,,,,,,,,,,,,,,,,0.0000,0.3636,0.2906,0.3812,0.3168,0.7986,0.2483,0.3105,0.0740,0.3330,0.2507,0.7178,0.7169,0.7894,0.0285,0.2729,0.2736,0.1118,0.0380,0.8615,0.5936,0.1185,0.2269,0.4731,0.0405,0.3955,0.0894,0.2890,0.1298,0.7490,0.7265,0.2206,0.1569,0.2971,0.1634,0.2118,0.5974,0.5974,0.3098,0.1927,0.3999,0.3422,0.0543,0.2476,0.1883,0.2351,0.1927,0.0592,0.3118,0.2441,0.4308,0.2118,0.6370,0.0685,0.2949,0.7800,0.2529,0.5630,0.1883,0.8871,0.2128,0.2198,0.6875,0.8822,0.8758,0.2911,0.6175,0.4821,0.3677,0.3682,0.5209,0.4227,0.8541,0.1593,0.1785,0.5742,0.1118,0.2685
,,,,,,,,,,,,,,,,,,,,,,,,,,,,,,,,,,,,,,,,,,,,,,,,,,,,,,,,,,,,,,,,,,,,,,,,,0.0000,0.2047,0.2161,0.1140,0.7888,0.0518,0.3252,0.2196,0.2699,0.5669,0.8472,0.8527,0.7909,0.3192,0.0171,0.3404,0.2833,0.2568,0.8364,0.5994,0.1711,0.5151,0.5861,0.2672,0.4997,0.3079,0.3560,0.3935,0.8068,0.6267,0.5423,0.1515,0.0699,0.5005,0.1305,0.4473,0.4473,0.6208,0.1365,0.2603,0.4056,0.2422,0.4769,0.4027,0.0419,0.1365,0.2244,0.2747,0.0791,0.5312,0.1305,0.6418,0.2642,0.1153,0.6780,0.5535,0.5486,0.4027,0.8940,0.4067,0.5564,0.6911,0.8957,0.8354,0.2804,0.4470,0.2973,0.3286,0.5177,0.7328,0.2590,0.8373,0.1086,0.4153,0.6688,0.2833,0.4536
,,,,,,,,,,,,,,,,,,,,,,,,,,,,,,,,,,,,,,,,,,,,,,,,,,,,,,,,,,,,,,,,,,,,,,,,,,0.0000,0.0216,0.0908,0.6953,0.1649,0.1136,0.1160,0.0592,0.4491,0.8017,0.8123,0.6987,0.2811,0.2000,0.1310,0.0815,0.1590,0.7629,0.4361,0.2516,0.3729,0.4274,0.2343,0.3166,0.1152,0.1428,0.2176,0.7270,0.4833,0.4186,0.1017,0.1326,0.3665,0.0874,0.2700,0.2700,0.5232,0.0909,0.0619,0.2013,0.1937,0.3096,0.2191,0.1963,0.0909,0.1900,0.0619,0.1308,0.3537,0.0874,0.4920,0.2863,0.0874,0.5546,0.4261,0.3708,0.2191,0.8473,0.2157,0.4421,0.5591,0.8498,0.7629,0.0663,0.2761,0.1136,0.1139,0.3454,0.6548,0.0663,0.7643,0.2012,0.2384,0.5362,0.0815,0.2722
,,,,,,,,,,,,,,,,,,,,,,,,,,,,,,,,,,,,,,,,,,,,,,,,,,,,,,,,,,,,,,,,,,,,,,,,,,,0.0000,0.0995,0.6975,0.1940,0.1301,0.1773,0.0591,0.5300,0.8393,0.8506,0.7039,0.3651,0.2281,0.1593,0.1522,0.2313,0.7606,0.4468,0.3135,0.4486,0.4668,0.3092,0.3536,0.1938,0.1716,0.2867,0.7481,0.4633,0.4997,0.1444,0.1484,0.4504,0.1174,0.2428,0.2428,0.6024,0.1251,0.0448,0.2287,0.2654,0.3741,0.2792,0.2303,0.1251,0.2577,0.0676,0.1570,0.3903,0.1174,0.5016,0.3605,0.1004,0.5326,0.5046,0.3769,0.2792,0.8507,0.2725,0.5253,0.5673,0.8549,0.7559,0.0778,0.2438,0.0848,0.1178,0.3933,0.7144,0.0439,0.7640,0.2509,0.3028,0.5702,0.1522,0.3274
,,,,,,,,,,,,,,,,,,,,,,,,,,,,,,,,,,,,,,,,,,,,,,,,,,,,,,,,,,,,,,,,,,,,,,,,,,,,0.0000,0.7408,0.0908,0.2170,0.1243,0.1544,0.5366,0.8373,0.8456,0.7443,0.2649,0.1263,0.2386,0.1949,0.1743,0.7979,0.5173,0.2114,0.4697,0.5170,0.2031,0.4165,0.2287,0.2526,0.3277,0.7718,0.5431,0.5094,0.0442,0.0445,0.4636,0.0179,0.3401,0.3401,0.6003,0.0255,0.1438,0.3068,0.1632,0.4132,0.3288,0.1261,0.0255,0.1512,0.1608,0.0532,0.4510,0.0179,0.5666,0.2571,0.0015,0.6046,0.5170,0.4565,0.3288,0.8702,0.3271,0.5296,0.6249,0.8728,0.7962,0.1685,0.3407,0.1838,0.2136,0.4446,0.7137,0.1431,0.7994,0.1479,0.3468,0.6112,0.1949,0.3785
,,,,,,,,,,,,,,,,,,,,,,,,,,,,,,,,,,,,,,,,,,,,,,,,,,,,,,,,,,,,,,,,,,,,,,,,,,,,,0.0000,0.7683,0.6314,0.7292,0.6571,0.7876,0.9737,0.9864,0.0164,0.7939,0.7836,0.6381,0.7135,0.7438,0.2149,0.3709,0.7893,0.7415,0.5284,0.7813,0.5588,0.7269,0.6274,0.7275,0.4503,0.4301,0.7798,0.7330,0.7610,0.7813,0.7324,0.5772,0.5772,0.8179,0.7321,0.6712,0.5937,0.7585,0.6853,0.6907,0.7789,0.7321,0.7654,0.6550,0.7559,0.5379,0.7324,0.3109,0.8002,0.7380,0.4548,0.7662,0.4268,0.6907,0.4274,0.6731,0.7986,0.2249,0.4966,0.3887,0.6543,0.5978,0.6687,0.6206,0.5978,0.8646,0.6782,0.1647,0.7743,0.7030,0.4780,0.7135,0.6515
,,,,,,,,,,,,,,,,,,,,,,,,,,,,,,,,,,,,,,,,,,,,,,,,,,,,,,,,,,,,,,,,,,,,,,,,,,,,,,0.0000,0.2663,0.1323,0.2252,0.4741,0.8100,0.8154,0.7689,0.2044,0.0369,0.2722,0.1951,0.1583,0.8232,0.5577,0.0695,0.4217,0.5252,0.1613,0.4333,0.2128,0.2874,0.2951,0.7774,0.6080,0.4465,0.0824,0.0408,0.3987,0.0777,0.4285,0.4285,0.5342,0.0781,0.2328,0.3406,0.1398,0.3891,0.3127,0.0244,0.0781,0.1269,0.2246,0.0336,0.4676,0.0777,0.6040,0.1527,0.0861,0.6643,0.4617,0.5064,0.3127,0.8817,0.3194,0.4598,0.6584,0.8822,0.8242,0.2252,0.4333,0.2821,0.2794,0.4454,0.6717,0.2373,0.8231,0.0247,0.3226,0.6187,0.1951,0.3711
,,,,,,,,,,,,,,,,,,,,,,,,,,,,,,,,,,,,,,,,,,,,,,,,,,,,,,,,,,,,,,,,,,,,,,,,,,,,,,,0.0000,0.1743,0.0502,0.3195,0.7441,0.7588,0.6306,0.3076,0.2997,0.0052,0.1309,0.2029,0.7216,0.3282,0.3071,0.2334,0.2943,0.2774,0.1788,0.1544,0.0109,0.1434,0.6508,0.4309,0.2866,0.1838,0.2525,0.2284,0.1860,0.2197,0.2197,0.4072,0.1838,0.0788,0.0709,0.2375,0.1639,0.0747,0.2909,0.1838,0.2442,0.0448,0.2377,0.2158,0.1860,0.3900,0.3258,0.2083,0.5171,0.2919,0.2642,0.0747,0.8075,0.0666,0.3148,0.4668,0.8092,0.7321,0.0415,0.2376,0.0747,0.0109,0.2039,0.5602,0.0924,0.7181,0.2747,0.0935,0.4187,0.1309,0.1262
,,,,,,,,,,,,,,,,,,,,,,,,,,,,,,,,,,,,,,,,,,,,,,,,,,,,,,,,,,,,,,,,,,,,,,,,,,,,,,,,0.0000,0.1635,0.3145,0.7383,0.7439,0.7257,0.0791,0.1665,0.1621,0.0579,0.0075,0.7996,0.4831,0.1132,0.2610,0.4103,0.0600,0.3140,0.0639,0.1740,0.1342,0.7181,0.5874,0.2846,0.0395,0.1404,0.2294,0.0621,0.4135,0.4135,0.3844,0.0531,0.2046,0.2307,0.0383,0.2360,0.1621,0.1450,0.0531,0.0430,0.1523,0.1095,0.3505,0.0621,0.5353,0.1073,0.1097,0.6538,0.3021,0.4345,0.1621,0.8570,0.1700,0.2982,0.5974,0.8561,0.8087,0.1426,0.4296,0.2772,0.2053,0.3140,0.5569,0.2207,0.7958,0.1046,0.1675,0.5210,0.0579,0.2268
,,,,,,,,,,,,,,,,,,,,,,,,,,,,,,,,,,,,,,,,,,,,,,,,,,,,,,,,,,,,,,,,,,,,,,,,,,,,,,,,,0.0000,0.4165,0.7904,0.8034,0.6605,0.3240,0.2598,0.0673,0.1275,0.2041,0.7341,0.3755,0.3010,0.3308,0.3704,0.2819,0.2536,0.1599,0.0759,0.1664,0.6954,0.4347,0.3843,0.1544,0.1974,0.3295,0.1439,0.2177,0.2177,0.4980,0.1461,0.0102,0.1351,0.2392,0.2573,0.1637,0.2558,0.1461,0.2400,0.0015,0.1922,0.2909,0.1439,0.4347,0.3325,0.1496,0.5135,0.3895,0.3072,0.1637,0.8265,0.1560,0.4117,0.5072,0.8297,0.7364,0.0049,0.2277,0.0673,0.0489,0.2868,0.6332,0.0176,0.7347,0.2547,0.1854,0.4866,0.1275,0.2143
,,,,,,,,,,,,,,,,,,,,,,,,,,,,,,,,,,,,,,,,,,,,,,,,,,,,,,,,,,,,,,,,,,,,,,,,,,,,,,,,,,0.0000,0.5623,0.5609,0.7662,0.2776,0.4921,0.2654,0.2562,0.2808,0.8719,0.5313,0.3650,0.0320,0.3068,0.2976,0.2325,0.2318,0.2708,0.1546,0.6600,0.7670,0.0254,0.3915,0.5179,0.0842,0.4420,0.6204,0.6204,0.0638,0.4245,0.4995,0.2385,0.2980,0.0661,0.1400,0.4646,0.4245,0.3129,0.3895,0.4721,0.2710,0.4420,0.5848,0.3233,0.5171,0.8315,0.0021,0.5087,0.1400,0.8705,0.1522,0.0271,0.6459,0.8586,0.9004,0.3631,0.6536,0.5572,0.3905,0.1748,0.2942,0.5272,0.8564,0.3985,0.1262,0.4312,0.2562,0.1036
,,,,,,,,,,,,,,,,,,,,,,,,,,,,,,,,,,,,,,,,,,,,,,,,,,,,,,,,,,,,,,,,,,,,,,,,,,,,,,,,,,,0.0000,0.0164,0.9534,0.7309,0.8158,0.7161,0.7135,0.7255,0.9994,0.7949,0.7679,0.5845,0.5946,0.7391,0.6442,0.7029,0.7160,0.6605,0.6604,0.9745,0.5845,0.7718,0.8286,0.6206,0.7950,0.8981,0.8981,0.5213,0.7869,0.8291,0.7036,0.7354,0.6015,0.6508,0.8074,0.7869,0.7445,0.7773,0.8091,0.6407,0.7950,0.8278,0.7517,0.8289,0.9940,0.5609,0.8036,0.6508,0.9934,0.6502,0.5880,0.8672,0.9828,1.0000,0.7644,0.9144,0.8604,0.7813,0.5978,0.3055,0.8415,0.9977,0.7797,0.6438,0.5833,0.7135,0.6230
,,,,,,,,,,,,,,,,,,,,,,,,,,,,,,,,,,,,,,,,,,,,,,,,,,,,,,,,,,,,,,,,,,,,,,,,,,,,,,,,,,,,0.0000,0.9737,0.7307,0.8207,0.7298,0.7199,0.7290,1.0000,0.8300,0.7693,0.5880,0.6302,0.7400,0.6690,0.7078,0.7318,0.6652,0.7486,0.9839,0.5833,0.7791,0.8351,0.6198,0.8034,0.9144,0.9144,0.5156,0.7950,0.8415,0.7224,0.7376,0.6113,0.6592,0.8118,0.7950,0.7470,0.7904,0.8156,0.6703,0.8034,0.8646,0.7514,0.8373,0.9971,0.5623,0.8335,0.6592,0.9980,0.6610,0.5845,0.9025,0.9934,1.0000,0.7773,0.9291,0.8734,0.7978,0.6203,0.3109,0.8536,0.9994,0.7830,0.6508,0.6372,0.7199,0.6365
,,,,,,,,,,,,,,,,,,,,,,,,,,,,,,,,,,,,,,,,,,,,,,,,,,,,,,,,,,,,,,,,,,,,,,,,,,,,,,,,,,,,,0.0000,0.7857,0.7839,0.6340,0.7078,0.7382,0.2924,0.3668,0.7854,0.7224,0.4995,0.7753,0.5431,0.7199,0.6231,0.7161,0.3387,0.4780,0.7607,0.7324,0.7636,0.7646,0.7330,0.5978,0.5978,0.7946,0.7324,0.6782,0.5880,0.7530,0.6679,0.6792,0.7787,0.7324,0.7608,0.6571,0.7572,0.5189,0.7330,0.3055,0.7942,0.7408,0.5222,0.7445,0.4299,0.6792,0.3814,0.6610,0.7798,0.2172,0.4274,0.4942,0.6550,0.6203,0.6792,0.6231,0.5772,0.8278,0.6863,0.2149,0.7722,0.6907,0.4301,0.7078,0.6365
,,,,,,,,,,,,,,,,,,,,,,,,,,,,,,,,,,,,,,,,,,,,,,,,,,,,,,,,,,,,,,,,,,,,,,,,,,,,,,,,,,,,,,0.0000,0.2309,0.2754,0.1233,0.0495,0.8563,0.5888,0.0849,0.2503,0.4796,0.0081,0.4005,0.1050,0.2905,0.1498,0.7520,0.7122,0.2476,0.1114,0.2491,0.1912,0.1632,0.5795,0.5795,0.3371,0.1451,0.3849,0.3434,0.0192,0.2651,0.2039,0.1938,0.1451,0.0231,0.3050,0.1975,0.4355,0.1632,0.6323,0.0390,0.2433,0.7661,0.2783,0.5561,0.2039,0.8854,0.2264,0.2484,0.6830,0.8816,0.8697,0.2865,0.5981,0.4635,0.3597,0.3781,0.5406,0.4062,0.8495,0.1209,0.1962,0.5797,0.1233,0.2816
,,,,,,,,,,,,,,,,,,,,,,,,,,,,,,,,,,,,,,,,,,,,,,,,,,,,,,,,,,,,,,,,,,,,,,,,,,,,,,,,,,,,,,,0.0000,0.3050,0.2272,0.1903,0.8353,0.5825,0.1011,0.4433,0.5490,0.1897,0.4610,0.2434,0.3205,0.3223,0.7890,0.6300,0.4656,0.1186,0.0759,0.4193,0.1144,0.4570,0.4570,0.5492,0.1148,0.2666,0.3720,0.1714,0.4145,0.3411,0.0179,0.1148,0.1580,0.2593,0.0693,0.4942,0.1144,0.6271,0.1801,0.1221,0.6832,0.4811,0.5334,0.3411,0.8897,0.3487,0.4775,0.6789,0.8898,0.8356,0.2598,0.4610,0.3137,0.3134,0.4713,0.6831,0.2706,0.8353,0.0591,0.3497,0.6384,0.2272,0.3986
,,,,,,,,,,,,,,,,,,,,,,,,,,,,,,,,,,,,,,,,,,,,,,,,,,,,,,,,,,,,,,,,,,,,,,,,,,,,,,,,,,,,,,,,0.0000,0.1135,0.1821,0.7321,0.3331,0.2899,0.1854,0.2743,0.2524,0.1635,0.1308,0.0058,0.1077,0.6381,0.4608,0.2334,0.1838,0.2676,0.1745,0.1944,0.2575,0.2575,0.3527,0.1895,0.1077,0.0658,0.2160,0.1262,0.0430,0.2929,0.1895,0.2252,0.0577,0.2464,0.2000,0.1944,0.3947,0.2996,0.2272,0.5472,0.2403,0.2743,0.0430,0.8075,0.0373,0.2595,0.4712,0.8070,0.7462,0.0502,0.2791,0.1140,0.0261,0.1788,0.5171,0.1248,0.7263,0.2668,0.0579,0.4005,0.1135,0.0970
,,,,,,,,,,,,,,,,,,,,,,,,,,,,,,,,,,,,,,,,,,,,,,,,,,,,,,,,,,,,,,,,,,,,,,,,,,,,,,,,,,,,,,,,,0.0000,0.0598,0.7911,0.4512,0.1645,0.2013,0.3643,0.1101,0.2656,0.0040,0.1249,0.0724,0.6912,0.5756,0.2253,0.1018,0.2079,0.1674,0.1279,0.3976,0.3976,0.3303,0.1179,0.1780,0.1836,0.0897,0.1774,0.1030,0.2054,0.1179,0.0969,0.1133,0.1749,0.3031,0.1279,0.5060,0.1544,0.1795,0.6468,0.2432,0.4029,0.1030,0.8473,0.1111,0.2396,0.5716,0.8449,0.8032,0.1007,0.4170,0.2586,0.1674,0.2620,0.5148,0.1972,0.7858,0.1613,0.1074,0.4811,0.0000,0.1702
,,,,,,,,,,,,,,,,,,,,,,,,,,,,,,,,,,,,,,,,,,,,,,,,,,,,,,,,,,,,,,,,,,,,,,,,,,,,,,,,,,,,,,,,,,0.0000,0.8139,0.5065,0.1034,0.2356,0.4161,0.0409,0.3247,0.0569,0.1948,0.1175,0.7206,0.6249,0.2509,0.0622,0.1798,0.1948,0.0959,0.4636,0.4636,0.3486,0.0836,0.2554,0.2509,0.0281,0.2240,0.1546,0.1634,0.0836,0.0345,0.1892,0.1407,0.3611,0.0959,0.5567,0.0834,0.1567,0.6889,0.2725,0.4634,0.1546,0.8625,0.1671,0.2606,0.6161,0.8602,0.8262,0.1754,0.4819,0.3332,0.2431,0.3159,0.5350,0.2745,0.8086,0.1104,0.1554,0.5259,0.0598,0.2240
,,,,,,,,,,,,,,,,,,,,,,,,,,,,,,,,,,,,,,,,,,,,,,,,,,,,,,,,,,,,,,,,,,,,,,,,,,,,,,,,,,,,,,,,,,,0.0000,0.5297,0.8459,0.8337,0.6893,0.8435,0.6903,0.8032,0.7234,0.8104,0.7836,0.4872,0.8622,0.7979,0.8144,0.8597,0.7959,0.6459,0.6459,0.8976,0.7962,0.7391,0.7004,0.8250,0.7884,0.7826,0.8323,0.7962,0.8284,0.7347,0.8124,0.6798,0.7959,0.4872,0.8578,0.7969,0.4716,0.8564,0.5601,0.7826,0.5827,0.7709,0.8758,0.4274,0.7089,0.1077,0.7364,0.6587,0.7321,0.7081,0.7277,0.9532,0.7429,0.0281,0.8319,0.7933,0.6842,0.7911,0.7590
,,,,,,,,,,,,,,,,,,,,,,,,,,,,,,,,,,,,,,,,,,,,,,,,,,,,,,,,,,,,,,,,,,,,,,,,,,,,,,,,,,,,,,,,,,,,0.0000,0.5881,0.4661,0.1458,0.5699,0.2025,0.4716,0.3182,0.4636,0.4618,0.2052,0.5265,0.4913,0.5480,0.5402,0.4930,0.2745,0.2745,0.5656,0.4913,0.4031,0.2650,0.5334,0.3832,0.4027,0.5761,0.4913,0.5441,0.3703,0.5369,0.1748,0.4930,0.0593,0.6036,0.5104,0.3417,0.4975,0.0671,0.4027,0.6570,0.3778,0.5573,0.1475,0.6642,0.5795,0.3671,0.3052,0.4027,0.3182,0.2470,0.5802,0.4159,0.5131,0.5641,0.4211,0.1631,0.4512,0.3365
,,,,,,,,,,,,,,,,,,,,,,,,,,,,,,,,,,,,,,,,,,,,,,,,,,,,,,,,,,,,,,,,,,,,,,,,,,,,,,,,,,,,,,,,,,,,,0.0000,0.3294,0.5119,0.0701,0.4286,0.1588,0.3054,0.2182,0.7710,0.6777,0.3352,0.1122,0.1437,0.2815,0.1432,0.5303,0.5303,0.4238,0.1319,0.3403,0.3580,0.0736,0.3278,0.2603,0.0688,0.1319,0.0665,0.2893,0.1057,0.4632,0.1432,0.6318,0.0435,0.1964,0.7308,0.3616,0.5485,0.2603,0.8884,0.2780,0.3395,0.6826,0.8867,0.8539,0.2785,0.5429,0.4058,0.3437,0.4198,0.6024,0.3547,0.8424,0.0149,0.2587,0.6078,0.1645,0.3317
,,,,,,,,,,,,,,,,,,,,,,,,,,,,,,,,,,,,,,,,,,,,,,,,,,,,,,,,,,,,,,,,,,,,,,,,,,,,,,,,,,,,,,,,,,,,,,0.0000,0.2715,0.2640,0.1902,0.1835,0.1877,0.1117,0.6365,0.6940,0.0068,0.3326,0.4593,0.0636,0.3786,0.5366,0.5366,0.1038,0.3623,0.4117,0.1478,0.2569,0.0148,0.0859,0.4171,0.3623,0.2723,0.3053,0.4152,0.2272,0.3786,0.5222,0.2949,0.4504,0.7667,0.0271,0.4371,0.0859,0.8477,0.0922,0.0148,0.5883,0.8378,0.8622,0.2808,0.5700,0.4638,0.2961,0.1471,0.3239,0.4396,0.8187,0.3545,0.0771,0.3979,0.2013,0.0396
,,,,,,,,,,,,,,,,,,,,,,,,,,,,,,,,,,,,,,,,,,,,,,,,,,,,,,,,,,,,,,,,,,,,,,,,,,,,,,,,,,,,,,,,,,,,,,,0.0000,0.4748,0.1001,0.3707,0.2609,0.3300,0.4268,0.4684,0.3197,0.4448,0.5334,0.3566,0.4641,0.3844,0.3844,0.3077,0.4566,0.4250,0.2068,0.4440,0.2185,0.2743,0.5367,0.4566,0.4599,0.3551,0.5092,0.0688,0.4641,0.2103,0.5098,0.5046,0.5922,0.2784,0.1122,0.2743,0.7197,0.2538,0.3468,0.2982,0.7073,0.7474,0.3415,0.4245,0.4517,0.3156,0.1001,0.3269,0.4458,0.6612,0.5048,0.2831,0.1260,0.3643,0.1982
,,,,,,,,,,,,,,,,,,,,,,,,,,,,,,,,,,,,,,,,,,,,,,,,,,,,,,,,,,,,,,,,,,,,,,,,,,,,,,,,,,,,,,,,,,,,,,,,0.0000,0.3901,0.0985,0.2683,0.1534,0.7521,0.6799,0.2666,0.0731,0.1948,0.2095,0.1156,0.5329,0.5329,0.3593,0.1003,0.3335,0.3230,0.0080,0.2697,0.2024,0.1562,0.1003,0.0075,0.2661,0.1501,0.4261,0.1156,0.6155,0.0349,0.1842,0.7359,0.2958,0.5319,0.2024,0.8809,0.2228,0.2697,0.6685,0.8786,0.8555,0.2512,0.5491,0.4078,0.3226,0.3745,0.5557,0.3516,0.8378,0.0942,0.1980,0.5767,0.1101,0.2793
,,,,,,,,,,,,,,,,,,,,,,,,,,,,,,,,,,,,,,,,,,,,,,,,,,,,,,,,,,,,,,,,,,,,,,,,,,,,,,,,,,,,,,,,,,,,,,,,,0.0000,0.2759,0.1523,0.2397,0.5156,0.4362,0.2424,0.3461,0.4380,0.2794,0.3637,0.2352,0.2352,0.2352,0.3567,0.3060,0.0955,0.3557,0.1296,0.1788,0.4484,0.3567,0.3708,0.2397,0.4136,0.0291,0.3637,0.2676,0.4302,0.4038,0.5453,0.2025,0.1552,0.1788,0.7521,0.1594,0.2713,0.3529,0.7465,0.7277,0.2277,0.2735,0.3269,0.1968,0.0093,0.4018,0.3266,0.6736,0.4163,0.1901,0.2327,0.2656,0.1038
,,,,,,,,,,,,,,,,,,,,,,,,,,,,,,,,,,,,,,,,,,,,,,,,,,,,,,,,,,,,,,,,,,,,,,,,,,,,,,,,,,,,,,,,,,,,,,,,,,0.0000,0.1427,0.0617,0.6953,0.6057,0.2012,0.1179,0.2343,0.1427,0.1515,0.4370,0.4370,0.3040,0.1391,0.2175,0.2012,0.0844,0.1701,0.0992,0.2179,0.1391,0.0924,0.1429,0.1961,0.3134,0.1515,0.5249,0.1395,0.2113,0.6745,0.2221,0.4273,0.0992,0.8526,0.1110,0.2123,0.5886,0.8498,0.8171,0.1274,0.4578,0.3017,0.1980,0.2655,0.4983,0.2388,0.7969,0.1658,0.1002,0.4868,0.0040,0.1701
,,,,,,,,,,,,,,,,,,,,,,,,,,,,,,,,,,,,,,,,,,,,,,,,,,,,,,,,,,,,,,,,,,,,,,,,,,,,,,,,,,,,,,,,,,,,,,,,,,,0.0000,0.1184,0.6274,0.4544,0.2393,0.1963,0.2830,0.1812,0.2073,0.2557,0.2557,0.3595,0.2022,0.1184,0.0582,0.2296,0.1239,0.0508,0.3086,0.2022,0.2404,0.0659,0.2614,0.1869,0.2073,0.3796,0.3158,0.2411,0.5428,0.2435,0.2609,0.0508,0.8029,0.0343,0.2671,0.4569,0.8026,0.7391,0.0581,0.2794,0.1261,0.0222,0.1693,0.5176,0.1363,0.7175,0.2819,0.0666,0.3862,0.1249,0.0922
,,,,,,,,,,,,,,,,,,,,,,,,,,,,,,,,,,,,,,,,,,,,,,,,,,,,,,,,,,,,,,,,,,,,,,,,,,,,,,,,,,,,,,,,,,,,,,,,,,,,0.0000,0.6712,0.6332,0.1252,0.1990,0.3261,0.0659,0.2403,0.4717,0.4717,0.2277,0.2255,0.2416,0.1771,0.1426,0.1084,0.0448,0.2952,0.2255,0.1546,0.1438,0.2831,0.2769,0.2403,0.5180,0.1903,0.3088,0.7043,0.1467,0.4250,0.0448,0.8482,0.0581,0.1351,0.5827,0.8428,0.8305,0.1224,0.4980,0.3376,0.1998,0.2177,0.4347,0.2685,0.8009,0.2353,0.0415,0.4503,0.0724,0.1174
,,,,,,,,,,,,,,,,,,,,,,,,,,,,,,,,,,,,,,,,,,,,,,,,,,,,,,,,,,,,,,,,,,,,,,,,,,,,,,,,,,,,,,,,,,,,,,,,,,,,,0.0000,0.7398,0.6679,0.7358,0.7815,0.6864,0.7443,0.7200,0.7200,0.6690,0.7408,0.7275,0.5937,0.7354,0.6015,0.6381,0.7834,0.7408,0.7445,0.6863,0.7696,0.4857,0.7443,0.4301,0.7700,0.7650,0.8245,0.6411,0.5284,0.6381,0.5796,0.6231,0.6853,0.3907,0.4966,0.9066,0.6782,0.7454,0.7441,0.6610,0.5156,0.5833,0.7394,0.6981,0.7675,0.6438,0.3055,0.6912,0.5880
,,,,,,,,,,,,,,,,,,,,,,,,,,,,,,,,,,,,,,,,,,,,,,,,,,,,,,,,,,,,,,,,,,,,,,,,,,,,,,,,,,,,,,,,,,,,,,,,,,,,,,0.0000,0.7474,0.5666,0.5815,0.7400,0.5505,0.2327,0.2327,0.8134,0.5550,0.4256,0.4195,0.6462,0.6084,0.5827,0.6314,0.5550,0.6473,0.4416,0.5850,0.4360,0.5505,0.1758,0.7078,0.5427,0.0905,0.7393,0.2103,0.5827,0.7569,0.5655,0.7726,0.2668,0.7898,0.4504,0.4503,0.2397,0.3947,0.3953,0.5091,0.8738,0.4266,0.5174,0.6403,0.6057,0.4827,0.5756,0.5506
,,,,,,,,,,,,,,,,,,,,,,,,,,,,,,,,,,,,,,,,,,,,,,,,,,,,,,,,,,,,,,,,,,,,,,,,,,,,,,,,,,,,,,,,,,,,,,,,,,,,,,,0.0000,0.3623,0.4910,0.0582,0.4133,0.6027,0.6027,0.0904,0.3955,0.4674,0.2058,0.2681,0.0396,0.1106,0.4366,0.3955,0.2820,0.3573,0.4441,0.2809,0.4133,0.5793,0.2926,0.4894,0.8119,0.0271,0.5016,0.1106,0.8685,0.1239,0.0020,0.6402,0.8579,0.8888,0.3308,0.6344,0.5240,0.3569,0.1902,0.3239,0.4953,0.8482,0.3694,0.0970,0.4430,0.2253,0.0754
,,,,,,,,,,,,,,,,,,,,,,,,,,,,,,,,,,,,,,,,,,,,,,,,,,,,,,,,,,,,,,,,,,,,,,,,,,,,,,,,,,,,,,,,,,,,,,,,,,,,,,,,0.0000,0.0718,0.3103,0.0072,0.3815,0.3815,0.4598,0.0034,0.1775,0.2525,0.0443,0.2955,0.2170,0.1040,0.0034,0.0425,0.1495,0.0532,0.3820,0.0072,0.5431,0.1246,0.0341,0.6311,0.3763,0.4376,0.2170,0.8631,0.2214,0.3785,0.6050,0.8631,0.8015,0.1460,0.3921,0.2386,0.2022,0.3566,0.6112,0.1876,0.7969,0.0838,0.2272,0.5505,0.1018,0.2766
,,,,,,,,,,,,,,,,,,,,,,,,,,,,,,,,,,,,,,,,,,,,,,,,,,,,,,,,,,,,,,,,,,,,,,,,,,,,,,,,,,,,,,,,,,,,,,,,,,,,,,,,,0.0000,0.4449,0.0531,0.3897,0.3897,0.5784,0.0581,0.1922,0.3364,0.1650,0.4152,0.3350,0.0713,0.0581,0.1492,0.2014,0.0054,0.4723,0.0531,0.5952,0.1926,0.0439,0.6390,0.5023,0.4921,0.3350,0.8806,0.3378,0.5072,0.6505,0.8819,0.8126,0.2064,0.3913,0.2348,0.2564,0.4584,0.7011,0.1928,0.8160,0.0878,0.3490,0.6256,0.2079,0.3890
,,,,,,,,,,,,,,,,,,,,,,,,,,,,,,,,,,,,,,,,,,,,,,,,,,,,,,,,,,,,,,,,,,,,,,,,,,,,,,,,,,,,,,,,,,,,,,,,,,,,,,,,,,0.0000,0.3632,0.6009,0.6009,0.1480,0.3449,0.4153,0.2393,0.2125,0.0922,0.0508,0.3881,0.3449,0.2256,0.3019,0.3956,0.3168,0.3632,0.5905,0.2369,0.4427,0.8023,0.0856,0.5142,0.0508,0.8712,0.0658,0.0595,0.6485,0.8627,0.8841,0.2749,0.6302,0.4722,0.3001,0.2339,0.3756,0.4443,0.8469,0.3175,0.0373,0.4740,0.1674,0.1239
,,,,,,,,,,,,,,,,,,,,,,,,,,,,,,,,,,,,,,,,,,,,,,,,,,,,,,,,,,,,,,,,,,,,,,,,,,,,,,,,,,,,,,,,,,,,,,,,,,,,,,,,,,,0.0000,0.3567,0.3567,0.5096,0.0015,0.1545,0.2628,0.0810,0.3326,0.2511,0.1054,0.0015,0.0759,0.1431,0.0444,0.3993,0.0000,0.5446,0.1690,0.0117,0.6148,0.4245,0.4359,0.2511,0.8634,0.2527,0.4316,0.6062,0.8638,0.7969,0.1439,0.3637,0.2083,0.1956,0.3815,0.6467,0.1609,0.7958,0.1006,0.2648,0.5666,0.1279,0.3069
,,,,,,,,,,,,,,,,,,,,,,,,,,,,,,,,,,,,,,,,,,,,,,,,,,,,,,,,,,,,,,,,,,,,,,,,,,,,,,,,,,,,,,,,,,,,,,,,,,,,,,,,,,,,0.0000,0.0000,0.6663,0.3637,0.2008,0.2153,0.4918,0.4343,0.4072,0.4610,0.3637,0.4886,0.2277,0.3972,0.2766,0.3567,0.3390,0.5726,0.3408,0.3172,0.5862,0.1794,0.4072,0.8032,0.3885,0.6344,0.4208,0.8170,0.6279,0.2397,0.0026,0.1596,0.1818,0.3130,0.7858,0.1998,0.6587,0.4772,0.4355,0.5091,0.3976,0.3666
,,,,,,,,,,,,,,,,,,,,,,,,,,,,,,,,,,,,,,,,,,,,,,,,,,,,,,,,,,,,,,,,,,,,,,,,,,,,,,,,,,,,,,,,,,,,,,,,,,,,,,,,,,,,,0.0000,0.6663,0.3637,0.2008,0.2153,0.4918,0.4343,0.4072,0.4610,0.3637,0.4886,0.2277,0.3972,0.2766,0.3567,0.3390,0.5726,0.3408,0.3172,0.5862,0.1794,0.4072,0.8032,0.3885,0.6344,0.4208,0.8170,0.6279,0.2397,0.0026,0.1596,0.1818,0.3130,0.7858,0.1998,0.6587,0.4772,0.4355,0.5091,0.3976,0.3666
,,,,,,,,,,,,,,,,,,,,,,,,,,,,,,,,,,,,,,,,,,,,,,,,,,,,,,,,,,,,,,,,,,,,,,,,,,,,,,,,,,,,,,,,,,,,,,,,,,,,,,,,,,,,,,0.0000,0.4925,0.5773,0.3338,0.3628,0.1471,0.2197,0.5230,0.4925,0.3768,0.4717,0.5347,0.2766,0.5096,0.6204,0.3812,0.5818,0.8735,0.0694,0.5455,0.2197,0.8852,0.2339,0.0887,0.6807,0.8717,0.9264,0.4458,0.6998,0.6354,0.4793,0.1643,0.2397,0.6034,0.8814,0.4591,0.2039,0.4362,0.3303,0.1902
,,,,,,,,,,,,,,,,,,,,,,,,,,,,,,,,,,,,,,,,,,,,,,,,,,,,,,,,,,,,,,,,,,,,,,,,,,,,,,,,,,,,,,,,,,,,,,,,,,,,,,,,,,,,,,,0.0000,0.1609,0.2580,0.0679,0.3193,0.2386,0.1038,0.0000,0.0637,0.1439,0.0463,0.3924,0.0015,0.5431,0.1532,0.0179,0.6194,0.4076,0.4353,0.2386,0.8632,0.2411,0.4133,0.6050,0.8634,0.7979,0.1431,0.3720,0.2171,0.1963,0.3720,0.6344,0.1685,0.7959,0.0940,0.2511,0.5603,0.1179,0.2956
,,,,,,,,,,,,,,,,,,,,,,,,,,,,,,,,,,,,,,,,,,,,,,,,,,,,,,,,,,,,,,,,,,,,,,,,,,,,,,,,,,,,,,,,,,,,,,,,,,,,,,,,,,,,,,,,0.0000,0.1771,0.2894,0.3308,0.2324,0.2678,0.1609,0.2845,0.0176,0.1974,0.3437,0.1545,0.4608,0.3833,0.1431,0.4999,0.4717,0.3300,0.2324,0.8378,0.2238,0.4953,0.5310,0.8428,0.7347,0.0270,0.2041,0.0448,0.0659,0.3485,0.6953,0.0015,0.7429,0.2825,0.2576,0.5353,0.1780,0.2808
,,,,,,,,,,,,,,,,,,,,,,,,,,,,,,,,,,,,,,,,,,,,,,,,,,,,,,,,,,,,,,,,,,,,,,,,,,,,,,,,,,,,,,,,,,,,,,,,,,,,,,,,,,,,,,,,,0.0000,0.2845,0.0754,0.1106,0.3611,0.2580,0.2962,0.1252,0.3159,0.1293,0.2628,0.3288,0.3682,0.2956,0.5157,0.2077,0.2068,0.1106,0.7822,0.0922,0.2371,0.4103,0.7814,0.7203,0.1174,0.2424,0.1854,0.0800,0.1151,0.4947,0.1948,0.6927,0.3354,0.1262,0.3368,0.1836,0.0396
,,,,,,,,,,,,,,,,,,,,,,,,,,,,,,,,,,,,,,,,,,,,,,,,,,,,,,,,,,,,,,,,,,,,,,,,,,,,,,,,,,,,,,,,,,,,,,,,,,,,,,,,,,,,,,,,,,0.0000,0.2506,0.1827,0.1421,0.0679,0.0051,0.2243,0.1236,0.3915,0.0810,0.5814,0.0490,0.1451,0.7068,0.2918,0.4924,0.1827,0.8700,0.1974,0.2756,0.6378,0.8678,0.8370,0.2105,0.5089,0.3647,0.2784,0.3452,0.5499,0.3078,0.8198,0.0855,0.1820,0.5499,0.0897,0.2534
,,,,,,,,,,,,,,,,,,,,,,,,,,,,,,,,,,,,,,,,,,,,,,,,,,,,,,,,,,,,,,,,,,,,,,,,,,,,,,,,,,,,,,,,,,,,,,,,,,,,,,,,,,,,,,,,,,,0.0000,0.0670,0.3926,0.3193,0.2667,0.2351,0.3768,0.1649,0.3326,0.4430,0.3064,0.3955,0.6922,0.0517,0.3468,0.0670,0.8189,0.0636,0.0560,0.5157,0.8106,0.8187,0.2143,0.4685,0.3733,0.2127,0.1038,0.3479,0.3573,0.7735,0.3388,0.0658,0.3479,0.1774,0.0068
,,,,,,,,,,,,,,,,,,,,,,,,,,,,,,,,,,,,,,,,,,,,,,,,,,,,,,,,,,,,,,,,,,,,,,,,,,,,,,,,,,,,,,,,,,,,,,,,,,,,,,,,,,,,,,,,,,,,0.0000,0.3186,0.2386,0.1960,0.1434,0.2975,0.2158,0.2511,0.4608,0.2421,0.3114,0.6619,0.1262,0.3601,0.0000,0.8293,0.0071,0.1262,0.5314,0.8242,0.8046,0.1248,0.4355,0.2674,0.1261,0.1635,0.4187,0.2576,0.7725,0.2668,0.0015,0.4005,0.1030,0.0670
,,,,,,,,,,,,,,,,,,,,,,,,,,,,,,,,,,,,,,,,,,,,,,,,,,,,,,,,,,,,,,,,,,,,,,,,,,,,,,,,,,,,,,,,,,,,,,,,,,,,,,,,,,,,,,,,,,,,,0.0000,0.1038,0.1289,0.2536,0.0598,0.4821,0.1054,0.6207,0.1431,0.1202,0.6855,0.4547,0.5282,0.3186,0.8864,0.3282,0.4472,0.6729,0.8866,0.8349,0.2522,0.4665,0.3186,0.3086,0.4561,0.6680,0.2735,0.8315,0.0350,0.3257,0.6282,0.2054,0.3797
,,,,,,,,,,,,,,,,,,,,,,,,,,,,,,,,,,,,,,,,,,,,,,,,,,,,,,,,,,,,,,,,,,,,,,,,,,,,,,,,,,,,,,,,,,,,,,,,,,,,,,,,,,,,,,,,,,,,,,0.0000,0.0637,0.1439,0.0463,0.3924,0.0015,0.5431,0.1532,0.0179,0.6194,0.4076,0.4353,0.2386,0.8632,0.2411,0.4133,0.6050,0.8634,0.7979,0.1431,0.3720,0.2171,0.1963,0.3720,0.6344,0.1685,0.7959,0.0940,0.2511,0.5603,0.1179,0.2956
,,,,,,,,,,,,,,,,,,,,,,,,,,,,,,,,,,,,,,,,,,,,,,,,,,,,,,,,,,,,,,,,,,,,,,,,,,,,,,,,,,,,,,,,,,,,,,,,,,,,,,,,,,,,,,,,,,,,,,,0.0000,0.2268,0.1107,0.4071,0.0759,0.5916,0.0435,0.1343,0.7064,0.3075,0.5017,0.1960,0.8753,0.2124,0.2885,0.6474,0.8736,0.8384,0.2146,0.5035,0.3566,0.2831,0.3617,0.5640,0.3009,0.8242,0.0770,0.1955,0.5640,0.0969,0.2693
,,,,,,,,,,,,,,,,,,,,,,,,,,,,,,,,,,,,,,,,,,,,,,,,,,,,,,,,,,,,,,,,,,,,,,,,,,,,,,,,,,,,,,,,,,,,,,,,,,,,,,,,,,,,,,,,,,,,,,,,0.0000,0.1928,0.2769,0.1431,0.4296,0.3167,0.1545,0.5214,0.3631,0.3039,0.1434,0.8239,0.1363,0.3843,0.5027,0.8265,0.7391,0.0015,0.2397,0.0788,0.0478,0.2694,0.6128,0.0270,0.7341,0.2473,0.1637,0.4729,0.1133,0.1948
,,,,,,,,,,,,,,,,,,,,,,,,,,,,,,,,,,,,,,,,,,,,,,,,,,,,,,,,,,,,,,,,,,,,,,,,,,,,,,,,,,,,,,,,,,,,,,,,,,,,,,,,,,,,,,,,,,,,,,,,,0.0000,0.4484,0.0444,0.5850,0.1443,0.0490,0.6440,0.4577,0.4826,0.2975,0.8764,0.3022,0.4593,0.6417,0.8778,0.8133,0.1945,0.4018,0.2464,0.2479,0.4290,0.6700,0.2014,0.8126,0.0617,0.3091,0.6055,0.1749,0.3549
,,,,,,,,,,,,,,,,,,,,,,,,,,,,,,,,,,,,,,,,,,,,,,,,,,,,,,,,,,,,,,,,,,,,,,,,,,,,,,,,,,,,,,,,,,,,,,,,,,,,,,,,,,,,,,,,,,,,,,,,,,0.0000,0.3993,0.2386,0.4650,0.4386,0.5510,0.2399,0.1325,0.2158,0.7358,0.1942,0.3107,0.3243,0.7295,0.7249,0.2648,0.3164,0.3655,0.2325,0.0382,0.3961,0.3643,0.6596,0.4512,0.2273,0.1972,0.3031,0.1378
,,,,,,,,,,,,,,,,,,,,,,,,,,,,,,,,,,,,,,,,,,,,,,,,,,,,,,,,,,,,,,,,,,,,,,,,,,,,,,,,,,,,,,,,,,,,,,,,,,,,,,,,,,,,,,,,,,,,,,,,,,,0.0000,0.5446,0.1690,0.0117,0.6148,0.4245,0.4359,0.2511,0.8634,0.2527,0.4316,0.6062,0.8638,0.7969,0.1439,0.3637,0.2083,0.1956,0.3815,0.6467,0.1609,0.7958,0.1006,0.2648,0.5666,0.1279,0.3069
,,,,,,,,,,,,,,,,,,,,,,,,,,,,,,,,,,,,,,,,,,,,,,,,,,,,,,,,,,,,,,,,,,,,,,,,,,,,,,,,,,,,,,,,,,,,,,,,,,,,,,,,,,,,,,,,,,,,,,,,,,,,0.0000,0.6460,0.5603,0.3237,0.5527,0.1296,0.4608,0.6174,0.4365,0.6084,0.0849,0.6278,0.5540,0.4266,0.3691,0.4608,0.3796,0.3117,0.6051,0.4729,0.4645,0.6099,0.4783,0.1255,0.5060,0.3979
,,,,,,,,,,,,,,,,,,,,,,,,,,,,,,,,,,,,,,,,,,,,,,,,,,,,,,,,,,,,,,,,,,,,,,,,,,,,,,,,,,,,,,,,,,,,,,,,,,,,,,,,,,,,,,,,,,,,,,,,,,,,,0.0000,0.2384,0.7592,0.3238,0.5687,0.2421,0.8910,0.2646,0.2932,0.6953,0.8885,0.8683,0.3014,0.5879,0.4549,0.3717,0.4129,0.5761,0.4011,0.8525,0.0756,0.2359,0.6062,0.1544,0.3193
,,,,,,,,,,,,,,,,,,,,,,,,,,,,,,,,,,,,,,,,,,,,,,,,,,,,,,,,,,,,,,,,,,,,,,,,,,,,,,,,,,,,,,,,,,,,,,,,,,,,,,,,,,,,,,,,,,,,,,,,,,,,,,0.0000,0.6050,0.4976,0.4501,0.3114,0.8680,0.3104,0.5094,0.6194,0.8702,0.7959,0.1609,0.3428,0.1860,0.2073,0.4301,0.6999,0.1439,0.7979,0.1367,0.3288,0.6007,0.1795,0.3623
,,,,,,,,,,,,,,,,,,,,,,,,,,,,,,,,,,,,,,,,,,,,,,,,,,,,,,,,,,,,,,,,,,,,,,,,,,,,,,,,,,,,,,,,,,,,,,,,,,,,,,,,,,,,,,,,,,,,,,,,,,,,,,,0.0000,0.8086,0.3321,0.6619,0.8018,0.6485,0.8327,0.3009,0.8408,0.3937,0.5310,0.3195,0.4679,0.4816,0.6134,0.9381,0.4991,0.5234,0.6962,0.6827,0.6302,0.6468,0.6402
,,,,,,,,,,,,,,,,,,,,,,,,,,,,,,,,,,,,,,,,,,,,,,,,,,,,,,,,,,,,,,,,,,,,,,,,,,,,,,,,,,,,,,,,,,,,,,,,,,,,,,,,,,,,,,,,,,,,,,,,,,,,,,,,0.0000,0.4731,0.1262,0.8586,0.1346,0.0320,0.6167,0.8466,0.8866,0.3372,0.6204,0.5276,0.3593,0.1496,0.2923,0.4995,0.8402,0.3907,0.1148,0.4043,0.2432,0.0834
,,,,,,,,,,,,,,,,,,,,,,,,,,,,,,,,,,,,,,,,,,,,,,,,,,,,,,,,,,,,,,,,,,,,,,,,,,,,,,,,,,,,,,,,,,,,,,,,,,,,,,,,,,,,,,,,,,,,,,,,,,,,,,,,,0.0000,0.3601,0.6980,0.3351,0.5343,0.2184,0.7073,0.5899,0.3028,0.2072,0.3232,0.2494,0.2072,0.6126,0.3415,0.5523,0.5189,0.3810,0.2451,0.4029,0.2944
,,,,,,,,,,,,,,,,,,,,,,,,,,,,,,,,,,,,,,,,,,,,,,,,,,,,,,,,,,,,,,,,,,,,,,,,,,,,,,,,,,,,,,,,,,,,,,,,,,,,,,,,,,,,,,,,,,,,,,,,,,,,,,,,,,0.0000,0.8293,0.0071,0.1262,0.5314,0.8242,0.8046,0.1248,0.4355,0.2674,0.1261,0.1635,0.4187,0.2576,0.7725,0.2668,0.0015,0.4005,0.1030,0.0670
,,,,,,,,,,,,,,,,,,,,,,,,,,,,,,,,,,,,,,,,,,,,,,,,,,,,,,,,,,,,,,,,,,,,,,,,,,,,,,,,,,,,,,,,,,,,,,,,,,,,,,,,,,,,,,,,,,,,,,,,,,,,,,,,,,,0.0000,0.8176,0.8791,0.5570,0.0615,0.8145,0.8219,0.8170,0.8403,0.8058,0.7683,0.9049,0.8428,0.4499,0.8818,0.8346,0.6673,0.8473,0.8034
,,,,,,,,,,,,,,,,,,,,,,,,,,,,,,,,,,,,,,,,,,,,,,,,,,,,,,,,,,,,,,,,,,,,,,,,,,,,,,,,,,,,,,,,,,,,,,,,,,,,,,,,,,,,,,,,,,,,,,,,,,,,,,,,,,,,0.0000,0.1432,0.5086,0.8126,0.7953,0.1184,0.4183,0.2571,0.1063,0.1480,0.4205,0.2488,0.7595,0.2794,0.0109,0.3796,0.1111,0.0582
,,,,,,,,,,,,,,,,,,,,,,,,,,,,,,,,,,,,,,,,,,,,,,,,,,,,,,,,,,,,,,,,,,,,,,,,,,,,,,,,,,,,,,,,,,,,,,,,,,,,,,,,,,,,,,,,,,,,,,,,,,,,,,,,,,,,,0.0000,0.6663,0.8685,0.9012,0.3573,0.6651,0.5536,0.3882,0.2153,0.3288,0.5232,0.8622,0.3780,0.1106,0.4681,0.2396,0.0973
,,,,,,,,,,,,,,,,,,,,,,,,,,,,,,,,,,,,,,,,,,,,,,,,,,,,,,,,,,,,,,,,,,,,,,,,,,,,,,,,,,,,,,,,,,,,,,,,,,,,,,,,,,,,,,,,,,,,,,,,,,,,,,,,,,,,,,0.0000,0.5737,0.5234,0.4999,0.4493,0.5314,0.4569,0.3949,0.6860,0.5421,0.3937,0.6634,0.5472,0.2152,0.5716,0.4743
,,,,,,,,,,,,,,,,,,,,,,,,,,,,,,,,,,,,,,,,,,,,,,,,,,,,,,,,,,,,,,,,,,,,,,,,,,,,,,,,,,,,,,,,,,,,,,,,,,,,,,,,,,,,,,,,,,,,,,,,,,,,,,,,,,,,,,,0.0000,0.8934,0.8239,0.8310,0.8466,0.8087,0.7595,0.8801,0.8482,0.5827,0.8814,0.8293,0.6447,0.8449,0.7973
,,,,,,,,,,,,,,,,,,,,,,,,,,,,,,,,,,,,,,,,,,,,,,,,,,,,,,,,,,,,,,,,,,,,,,,,,,,,,,,,,,,,,,,,,,,,,,,,,,,,,,,,,,,,,,,,,,,,,,,,,,,,,,,,,,,,,,,,0.0000,0.7429,0.6356,0.7216,0.7131,0.7677,0.9804,0.7364,0.2266,0.8371,0.8162,0.7719,0.8032,0.7884
,,,,,,,,,,,,,,,,,,,,,,,,,,,,,,,,,,,,,,,,,,,,,,,,,,,,,,,,,,,,,,,,,,,,,,,,,,,,,,,,,,,,,,,,,,,,,,,,,,,,,,,,,,,,,,,,,,,,,,,,,,,,,,,,,,,,,,,,,0.0000,0.2536,0.0924,0.0489,0.2536,0.5925,0.0383,0.7347,0.2409,0.1434,0.4608,0.1007,0.1771
,,,,,,,,,,,,,,,,,,,,,,,,,,,,,,,,,,,,,,,,,,,,,,,,,,,,,,,,,,,,,,,,,,,,,,,,,,,,,,,,,,,,,,,,,,,,,,,,,,,,,,,,,,,,,,,,,,,,,,,,,,,,,,,,,,,,,,,,,,0.0000,0.1583,0.1968,0.3535,0.8134,0.2008,0.6736,0.4872,0.4642,0.5464,0.4170,0.4003
,,,,,,,,,,,,,,,,,,,,,,,,,,,,,,,,,,,,,,,,,,,,,,,,,,,,,,,,,,,,,,,,,,,,,,,,,,,,,,,,,,,,,,,,,,,,,,,,,,,,,,,,,,,,,,,,,,,,,,,,,,,,,,,,,,,,,,,,,,,0.0000,0.0508,0.3796,0.7430,0.0415,0.7387,0.3427,0.2964,0.5602,0.2586,0.3148
,,,,,,,,,,,,,,,,,,,,,,,,,,,,,,,,,,,,,,,,,,,,,,,,,,,,,,,,,,,,,,,,,,,,,,,,,,,,,,,,,,,,,,,,,,,,,,,,,,,,,,,,,,,,,,,,,,,,,,,,,,,,,,,,,,,,,,,,,,,,0.0000,0.2339,0.6158,0.0759,0.7075,0.3019,0.1495,0.4365,0.1674,0.1645
,,,,,,,,,,,,,,,,,,,,,,,,,,,,,,,,,,,,,,,,,,,,,,,,,,,,,,,,,,,,,,,,,,,,,,,,,,,,,,,,,,,,,,,,,,,,,,,,,,,,,,,,,,,,,,,,,,,,,,,,,,,,,,,,,,,,,,,,,,,,,0.0000,0.3390,0.3716,0.7085,0.4163,0.1699,0.2327,0.2620,0.0904
,,,,,,,,,,,,,,,,,,,,,,,,,,,,,,,,,,,,,,,,,,,,,,,,,,,,,,,,,,,,,,,,,,,,,,,,,,,,,,,,,,,,,,,,,,,,,,,,,,,,,,,,,,,,,,,,,,,,,,,,,,,,,,,,,,,,,,,,,,,,,,0.0000,0.7157,0.9334,0.6225,0.4086,0.2918,0.5148,0.3787
,,,,,,,,,,,,,,,,,,,,,,,,,,,,,,,,,,,,,,,,,,,,,,,,,,,,,,,,,,,,,,,,,,,,,,,,,,,,,,,,,,,,,,,,,,,,,,,,,,,,,,,,,,,,,,,,,,,,,,,,,,,,,,,,,,,,,,,,,,,,,,,0.0000,0.7476,0.2932,0.2836,0.5537,0.1972,0.3053
,,,,,,,,,,,,,,,,,,,,,,,,,,,,,,,,,,,,,,,,,,,,,,,,,,,,,,,,,,,,,,,,,,,,,,,,,,,,,,,,,,,,,,,,,,,,,,,,,,,,,,,,,,,,,,,,,,,,,,,,,,,,,,,,,,,,,,,,,,,,,,,,0.0000,0.8296,0.7826,0.6391,0.7858,0.7452
,,,,,,,,,,,,,,,,,,,,,,,,,,,,,,,,,,,,,,,,,,,,,,,,,,,,,,,,,,,,,,,,,,,,,,,,,,,,,,,,,,,,,,,,,,,,,,,,,,,,,,,,,,,,,,,,,,,,,,,,,,,,,,,,,,,,,,,,,,,,,,,,,0.0000,0.2702,0.6016,0.1613,0.3331
,,,,,,,,,,,,,,,,,,,,,,,,,,,,,,,,,,,,,,,,,,,,,,,,,,,,,,,,,,,,,,,,,,,,,,,,,,,,,,,,,,,,,,,,,,,,,,,,,,,,,,,,,,,,,,,,,,,,,,,,,,,,,,,,,,,,,,,,,,,,,,,,,,0.0000,0.4086,0.1074,0.0709
,,,,,,,,,,,,,,,,,,,,,,,,,,,,,,,,,,,,,,,,,,,,,,,,,,,,,,,,,,,,,,,,,,,,,,,,,,,,,,,,,,,,,,,,,,,,,,,,,,,,,,,,,,,,,,,,,,,,,,,,,,,,,,,,,,,,,,,,,,,,,,,,,,,0.0000,0.4811,0.3288
,,,,,,,,,,,,,,,,,,,,,,,,,,,,,,,,,,,,,,,,,,,,,,,,,,,,,,,,,,,,,,,,,,,,,,,,,,,,,,,,,,,,,,,,,,,,,,,,,,,,,,,,,,,,,,,,,,,,,,,,,,,,,,,,,,,,,,,,,,,,,,,,,,,,0.0000,0.1702
,,,,,,,,,,,,,,,,,,,,,,,,,,,,,,,,,,,,,,,,,,,,,,,,,,,,,,,,,,,,,,,,,,,,,,,,,,,,,,,,,,,,,,,,,,,,,,,,,,,,,,,,,,,,,,,,,,,,,,,,,,,,,,,,,,,,,,,,,,,,,,,,,,,,,0.0000
